[{
            "KIND": "ADD",
            "USER": {
                "NO_PIN_DOOR": false,
                "DEACTIVATED": false,
                "CHANGE_PIN_ON_LOGIN": false,
                "ALIAS": "1",
                "NO_PIN": false,
                "USER_ID": "1",
                "NO_PIN_BIO": false,
                "ROLE_NAME": "supervision",
                "CARD_IDENTIFIER": "",
                "NO_PIN_CARD": false,
                "NAME": "Miriam Tejada",
                "NO_PIN_USER_ID": false,
                "FINGERPRINTS": "",
                "PIN": "15wXTB4kCEtjM",
                "NBR_OF_BAD_PIN": 0,
                "NBR_OF_LOGINS": -1,
                "LIST": false
            }
        }, {
            "KIND": "ADD",
            "USER": {
                "NO_PIN_DOOR": false,
                "DEACTIVATED": false,
                "CHANGE_PIN_ON_LOGIN": false,
                "ALIAS": "10",
                "NO_PIN": false,
                "USER_ID": "10",
                "NO_PIN_BIO": false,
                "ROLE_NAME": "caja",
                "CARD_IDENTIFIER": "",
                "NO_PIN_CARD": false,
                "NAME": "SARA DELGADO",
                "NO_PIN_USER_ID": false,
                "FINGERPRINTS": "",
                "PIN": "3880dgl0twXXM",
                "NBR_OF_BAD_PIN": 0,
                "NBR_OF_LOGINS": -1,
                "LIST": true
            }
        }, {
            "KIND": "ADD",
            "USER": {
                "NO_PIN_DOOR": false,
                "DEACTIVATED": false,
                "CHANGE_PIN_ON_LOGIN": false,
                "ALIAS": "11",
                "NO_PIN": false,
                "USER_ID": "11",
                "NO_PIN_BIO": false,
                "ROLE_NAME": "caja",
                "CARD_IDENTIFIER": "",
                "NO_PIN_CARD": false,
                "NAME": "ESTHER PEDROSA",
                "NO_PIN_USER_ID": false,
                "FINGERPRINTS": "",
                "PIN": "33lRiBag4OYDA",
                "NBR_OF_BAD_PIN": 0,
                "NBR_OF_LOGINS": -1,
                "LIST": true
            }
        }, {
            "KIND": "ADD",
            "USER": {
                "NO_PIN_DOOR": false,
                "DEACTIVATED": false,
                "CHANGE_PIN_ON_LOGIN": false,
                "ALIAS": "1111",
                "NO_PIN": false,
                "USER_ID": "1111",
                "NO_PIN_BIO": false,
                "ROLE_NAME": "caja",
                "CARD_IDENTIFIER": "",
                "NO_PIN_CARD": false,
                "NAME": "@SUZO CAJA",
                "NO_PIN_USER_ID": false,
                "FINGERPRINTS": "",
                "PIN": "97MgJDmSsZHB6",
                "NBR_OF_BAD_PIN": 0,
                "NBR_OF_LOGINS": -1,
                "LIST": false
            }
        }, {
            "KIND": "ADD",
            "USER": {
                "NO_PIN_DOOR": false,
                "DEACTIVATED": false,
                "CHANGE_PIN_ON_LOGIN": false,
                "ALIAS": "12",
                "NO_PIN": false,
                "USER_ID": "12",
                "NO_PIN_BIO": false,
                "ROLE_NAME": "caja",
                "CARD_IDENTIFIER": "",
                "NO_PIN_CARD": false,
                "NAME": "DESIREE LOPEZ",
                "NO_PIN_USER_ID": false,
                "FINGERPRINTS": "",
                "PIN": "60SEfGfth99sc",
                "NBR_OF_BAD_PIN": 0,
                "NBR_OF_LOGINS": -1,
                "LIST": true
            }
        }, {
            "KIND": "ADD",
            "USER": {
                "NO_PIN_DOOR": false,
                "DEACTIVATED": false,
                "CHANGE_PIN_ON_LOGIN": false,
                "ALIAS": "1234",
                "NO_PIN": false,
                "USER_ID": "1234",
                "NO_PIN_BIO": false,
                "ROLE_NAME": "administrator",
                "CARD_IDENTIFIER": "0000000000000000101",
                "NO_PIN_CARD": false,
                "NAME": "Administrator",
                "NO_PIN_USER_ID": false,
                "FINGERPRINTS": "",
                "PIN": "17j/AQkpV6BbU",
                "NBR_OF_BAD_PIN": 0,
                "NBR_OF_LOGINS": -1,
                "LIST": false
            }
        }, {
            "KIND": "ADD",
            "USER": {
                "NO_PIN_DOOR": false,
                "DEACTIVATED": false,
                "CHANGE_PIN_ON_LOGIN": false,
                "ALIAS": "13",
                "NO_PIN": false,
                "USER_ID": "13",
                "NO_PIN_BIO": false,
                "ROLE_NAME": "caja",
                "CARD_IDENTIFIER": "",
                "NO_PIN_CARD": false,
                "NAME": "NOELIA GUEROLA",
                "NO_PIN_USER_ID": false,
                "FINGERPRINTS": "",
                "PIN": "61hcyjMmiTE.A",
                "NBR_OF_BAD_PIN": 0,
                "NBR_OF_LOGINS": -1,
                "LIST": true
            }
        }, {
            "KIND": "ADD",
            "USER": {
                "NO_PIN_DOOR": false,
                "DEACTIVATED": false,
                "CHANGE_PIN_ON_LOGIN": false,
                "ALIAS": "14",
                "NO_PIN": false,
                "USER_ID": "14",
                "NO_PIN_BIO": false,
                "ROLE_NAME": "caja",
                "CARD_IDENTIFIER": "",
                "NO_PIN_CARD": false,
                "NAME": "YAIZA AYORA",
                "NO_PIN_USER_ID": false,
                "FINGERPRINTS": "",
                "PIN": "92tVteVBqEyjE",
                "NBR_OF_BAD_PIN": 0,
                "NBR_OF_LOGINS": -1,
                "LIST": true
            }
        }, {
            "KIND": "ADD",
            "USER": {
                "NO_PIN_DOOR": false,
                "DEACTIVATED": false,
                "CHANGE_PIN_ON_LOGIN": false,
                "ALIAS": "15",
                "NO_PIN": false,
                "USER_ID": "15",
                "NO_PIN_BIO": false,
                "ROLE_NAME": "caja",
                "CARD_IDENTIFIER": "",
                "NO_PIN_CARD": false,
                "NAME": "MARTA BUJ",
                "NO_PIN_USER_ID": false,
                "FINGERPRINTS": "",
                "PIN": "82Uktt0wACu8w",
                "NBR_OF_BAD_PIN": 0,
                "NBR_OF_LOGINS": -1,
                "LIST": true
            }
        }, {
            "KIND": "ADD",
            "USER": {
                "NO_PIN_DOOR": false,
                "DEACTIVATED": false,
                "CHANGE_PIN_ON_LOGIN": false,
                "ALIAS": "151",
                "NO_PIN": false,
                "USER_ID": "151",
                "NO_PIN_BIO": false,
                "ROLE_NAME": "caja",
                "CARD_IDENTIFIER": "",
                "NO_PIN_CARD": false,
                "NAME": "VENDEDOR 1",
                "NO_PIN_USER_ID": false,
                "FINGERPRINTS": "",
                "PIN": "53Q11tdxZazB6",
                "NBR_OF_BAD_PIN": 0,
                "NBR_OF_LOGINS": -1,
                "LIST": true
            }
        }, {
            "KIND": "ADD",
            "USER": {
                "NO_PIN_DOOR": false,
                "DEACTIVATED": false,
                "CHANGE_PIN_ON_LOGIN": false,
                "ALIAS": "152",
                "NO_PIN": false,
                "USER_ID": "152",
                "NO_PIN_BIO": false,
                "ROLE_NAME": "caja",
                "CARD_IDENTIFIER": "",
                "NO_PIN_CARD": false,
                "NAME": "VENDEDOR 2",
                "NO_PIN_USER_ID": false,
                "FINGERPRINTS": "",
                "PIN": "07d235oyCvf8k",
                "NBR_OF_BAD_PIN": 0,
                "NBR_OF_LOGINS": -1,
                "LIST": true
            }
        }, {
            "KIND": "ADD",
            "USER": {
                "NO_PIN_DOOR": false,
                "DEACTIVATED": false,
                "CHANGE_PIN_ON_LOGIN": false,
                "ALIAS": "153",
                "NO_PIN": false,
                "USER_ID": "153",
                "NO_PIN_BIO": false,
                "ROLE_NAME": "caja",
                "CARD_IDENTIFIER": "",
                "NO_PIN_CARD": false,
                "NAME": "VENDEDOR 3",
                "NO_PIN_USER_ID": false,
                "FINGERPRINTS": "",
                "PIN": "54eDi6cBOhnd6",
                "NBR_OF_BAD_PIN": 0,
                "NBR_OF_LOGINS": -1,
                "LIST": true
            }
        }, {
            "KIND": "ADD",
            "USER": {
                "NO_PIN_DOOR": false,
                "DEACTIVATED": false,
                "CHANGE_PIN_ON_LOGIN": false,
                "ALIAS": "154",
                "NO_PIN": false,
                "USER_ID": "154",
                "NO_PIN_BIO": false,
                "ROLE_NAME": "caja",
                "CARD_IDENTIFIER": "",
                "NO_PIN_CARD": false,
                "NAME": "VENDEDOR 4",
                "NO_PIN_USER_ID": false,
                "FINGERPRINTS": "",
                "PIN": "68Ylzs7TpNNlg",
                "NBR_OF_BAD_PIN": 0,
                "NBR_OF_LOGINS": -1,
                "LIST": true
            }
        }, {
            "KIND": "ADD",
            "USER": {
                "NO_PIN_DOOR": false,
                "DEACTIVATED": false,
                "CHANGE_PIN_ON_LOGIN": false,
                "ALIAS": "155",
                "NO_PIN": false,
                "USER_ID": "155",
                "NO_PIN_BIO": false,
                "ROLE_NAME": "caja",
                "CARD_IDENTIFIER": "",
                "NO_PIN_CARD": false,
                "NAME": "VENDEDOR 5",
                "NO_PIN_USER_ID": false,
                "FINGERPRINTS": "",
                "PIN": "94lrZD2WG/v8s",
                "NBR_OF_BAD_PIN": 0,
                "NBR_OF_LOGINS": -1,
                "LIST": true
            }
        }, {
            "KIND": "ADD",
            "USER": {
                "NO_PIN_DOOR": false,
                "DEACTIVATED": false,
                "CHANGE_PIN_ON_LOGIN": false,
                "ALIAS": "156",
                "NO_PIN": false,
                "USER_ID": "156",
                "NO_PIN_BIO": false,
                "ROLE_NAME": "caja",
                "CARD_IDENTIFIER": "",
                "NO_PIN_CARD": false,
                "NAME": "VENDEDOR 6",
                "NO_PIN_USER_ID": false,
                "FINGERPRINTS": "",
                "PIN": "597Al.be4Zu6M",
                "NBR_OF_BAD_PIN": 0,
                "NBR_OF_LOGINS": -1,
                "LIST": true
            }
        }, {
            "KIND": "ADD",
            "USER": {
                "NO_PIN_DOOR": false,
                "DEACTIVATED": false,
                "CHANGE_PIN_ON_LOGIN": false,
                "ALIAS": "157",
                "NO_PIN": false,
                "USER_ID": "157",
                "NO_PIN_BIO": false,
                "ROLE_NAME": "caja",
                "CARD_IDENTIFIER": "",
                "NO_PIN_CARD": false,
                "NAME": "VENDEDOR 7",
                "NO_PIN_USER_ID": false,
                "FINGERPRINTS": "",
                "PIN": "48w8wwq9706Y6",
                "NBR_OF_BAD_PIN": 0,
                "NBR_OF_LOGINS": -1,
                "LIST": true
            }
        }, {
            "KIND": "ADD",
            "USER": {
                "NO_PIN_DOOR": false,
                "DEACTIVATED": false,
                "CHANGE_PIN_ON_LOGIN": false,
                "ALIAS": "158",
                "NO_PIN": false,
                "USER_ID": "158",
                "NO_PIN_BIO": false,
                "ROLE_NAME": "caja",
                "CARD_IDENTIFIER": "",
                "NO_PIN_CARD": false,
                "NAME": "VENDEDOR 8",
                "NO_PIN_USER_ID": false,
                "FINGERPRINTS": "",
                "PIN": "07izFXyqgxB8I",
                "NBR_OF_BAD_PIN": 0,
                "NBR_OF_LOGINS": -1,
                "LIST": true
            }
        }, {
            "KIND": "ADD",
            "USER": {
                "NO_PIN_DOOR": false,
                "DEACTIVATED": false,
                "CHANGE_PIN_ON_LOGIN": false,
                "ALIAS": "159",
                "NO_PIN": false,
                "USER_ID": "159",
                "NO_PIN_BIO": false,
                "ROLE_NAME": "caja",
                "CARD_IDENTIFIER": "",
                "NO_PIN_CARD": false,
                "NAME": "VENDEDOR 9",
                "NO_PIN_USER_ID": false,
                "FINGERPRINTS": "",
                "PIN": "78ZJnXF2MhVPw",
                "NBR_OF_BAD_PIN": 0,
                "NBR_OF_LOGINS": -1,
                "LIST": true
            }
        }, {
            "KIND": "ADD",
            "USER": {
                "NO_PIN_DOOR": false,
                "DEACTIVATED": false,
                "CHANGE_PIN_ON_LOGIN": false,
                "ALIAS": "16",
                "NO_PIN": false,
                "USER_ID": "16",
                "NO_PIN_BIO": false,
                "ROLE_NAME": "caja",
                "CARD_IDENTIFIER": "",
                "NO_PIN_CARD": false,
                "NAME": "XAVI ROCA",
                "NO_PIN_USER_ID": false,
                "FINGERPRINTS": "",
                "PIN": "82Uktt0wACu8w",
                "NBR_OF_BAD_PIN": 0,
                "NBR_OF_LOGINS": -1,
                "LIST": true
            }
        }, {
            "KIND": "ADD",
            "USER": {
                "NO_PIN_DOOR": false,
                "DEACTIVATED": false,
                "CHANGE_PIN_ON_LOGIN": false,
                "ALIAS": "17",
                "NO_PIN": false,
                "USER_ID": "17",
                "NO_PIN_BIO": false,
                "ROLE_NAME": "caja",
                "CARD_IDENTIFIER": "",
                "NO_PIN_CARD": false,
                "NAME": "ROSA MARIA MONRAS",
                "NO_PIN_USER_ID": false,
                "FINGERPRINTS": "",
                "PIN": "40n83a/L7vdIc",
                "NBR_OF_BAD_PIN": 0,
                "NBR_OF_LOGINS": -1,
                "LIST": true
            }
        }, {
            "KIND": "ADD",
            "USER": {
                "NO_PIN_DOOR": false,
                "DEACTIVATED": false,
                "CHANGE_PIN_ON_LOGIN": false,
                "ALIAS": "18",
                "NO_PIN": false,
                "USER_ID": "18",
                "NO_PIN_BIO": false,
                "ROLE_NAME": "caja",
                "CARD_IDENTIFIER": "",
                "NO_PIN_CARD": false,
                "NAME": "RAQUEL ORTIZ",
                "NO_PIN_USER_ID": false,
                "FINGERPRINTS": "",
                "PIN": "49w/WA5Jh72k6",
                "NBR_OF_BAD_PIN": 0,
                "NBR_OF_LOGINS": -1,
                "LIST": true
            }
        }, {
            "KIND": "ADD",
            "USER": {
                "NO_PIN_DOOR": false,
                "DEACTIVATED": false,
                "CHANGE_PIN_ON_LOGIN": false,
                "ALIAS": "19",
                "NO_PIN": false,
                "USER_ID": "19",
                "NO_PIN_BIO": false,
                "ROLE_NAME": "caja",
                "CARD_IDENTIFIER": "",
                "NO_PIN_CARD": false,
                "NAME": "PAQUI RUBIO",
                "NO_PIN_USER_ID": false,
                "FINGERPRINTS": "",
                "PIN": "58OfEeA/ihb3A",
                "NBR_OF_BAD_PIN": 0,
                "NBR_OF_LOGINS": -1,
                "LIST": true
            }
        }, {
            "KIND": "ADD",
            "USER": {
                "NO_PIN_DOOR": false,
                "DEACTIVATED": false,
                "CHANGE_PIN_ON_LOGIN": false,
                "ALIAS": "2",
                "NO_PIN": false,
                "USER_ID": "2",
                "NO_PIN_BIO": false,
                "ROLE_NAME": "supervision",
                "CARD_IDENTIFIER": "",
                "NO_PIN_CARD": false,
                "NAME": "Macarena Perez",
                "NO_PIN_USER_ID": false,
                "FINGERPRINTS": "",
                "PIN": "20lDg52fpUaGI",
                "NBR_OF_BAD_PIN": 0,
                "NBR_OF_LOGINS": -1,
                "LIST": false
            }
        }, {
            "KIND": "ADD",
            "USER": {
                "NO_PIN_DOOR": false,
                "DEACTIVATED": false,
                "CHANGE_PIN_ON_LOGIN": false,
                "ALIAS": "20",
                "NO_PIN": false,
                "USER_ID": "20",
                "NO_PIN_BIO": false,
                "ROLE_NAME": "caja",
                "CARD_IDENTIFIER": "",
                "NO_PIN_CARD": false,
                "NAME": "ANA BELEN CANO",
                "NO_PIN_USER_ID": false,
                "FINGERPRINTS": "",
                "PIN": "54a/p7g3zWkQA",
                "NBR_OF_BAD_PIN": 0,
                "NBR_OF_LOGINS": -1,
                "LIST": true
            }
        }, {
            "KIND": "ADD",
            "USER": {
                "NO_PIN_DOOR": false,
                "DEACTIVATED": false,
                "CHANGE_PIN_ON_LOGIN": false,
                "ALIAS": "21",
                "NO_PIN": false,
                "USER_ID": "21",
                "NO_PIN_BIO": false,
                "ROLE_NAME": "caja",
                "CARD_IDENTIFIER": "",
                "NO_PIN_CARD": false,
                "NAME": "GENESIS SILVA",
                "NO_PIN_USER_ID": false,
                "FINGERPRINTS": "",
                "PIN": "72.Ei11bAO1AY",
                "NBR_OF_BAD_PIN": 0,
                "NBR_OF_LOGINS": -1,
                "LIST": true
            }
        }, {
            "KIND": "ADD",
            "USER": {
                "NO_PIN_DOOR": false,
                "DEACTIVATED": false,
                "CHANGE_PIN_ON_LOGIN": false,
                "ALIAS": "22",
                "NO_PIN": false,
                "USER_ID": "22",
                "NO_PIN_BIO": false,
                "ROLE_NAME": "caja",
                "CARD_IDENTIFIER": "",
                "NO_PIN_CARD": false,
                "NAME": "ELENA GONZALEZ",
                "NO_PIN_USER_ID": false,
                "FINGERPRINTS": "",
                "PIN": "92tVteVBqEyjE",
                "NBR_OF_BAD_PIN": 0,
                "NBR_OF_LOGINS": -1,
                "LIST": true
            }
        }, {
            "KIND": "ADD",
            "USER": {
                "NO_PIN_DOOR": false,
                "DEACTIVATED": false,
                "CHANGE_PIN_ON_LOGIN": false,
                "ALIAS": "2222",
                "NO_PIN": false,
                "USER_ID": "2222",
                "NO_PIN_BIO": false,
                "ROLE_NAME": "supervision",
                "CARD_IDENTIFIER": "",
                "NO_PIN_CARD": false,
                "NAME": "@SUZO Supervisor",
                "NO_PIN_USER_ID": false,
                "FINGERPRINTS": "",
                "PIN": "93JPm4zd3OkMY",
                "NBR_OF_BAD_PIN": 0,
                "NBR_OF_LOGINS": -1,
                "LIST": false
            }
        }, {
            "KIND": "ADD",
            "USER": {
                "NO_PIN_DOOR": false,
                "DEACTIVATED": false,
                "CHANGE_PIN_ON_LOGIN": false,
                "ALIAS": "23",
                "NO_PIN": false,
                "USER_ID": "23",
                "NO_PIN_BIO": false,
                "ROLE_NAME": "caja",
                "CARD_IDENTIFIER": "",
                "NO_PIN_CARD": false,
                "NAME": "ALICIA SALINERO",
                "NO_PIN_USER_ID": false,
                "FINGERPRINTS": "",
                "PIN": "84OxD.Mk3Lfxo",
                "NBR_OF_BAD_PIN": 0,
                "NBR_OF_LOGINS": -1,
                "LIST": true
            }
        }, {
            "KIND": "ADD",
            "USER": {
                "NO_PIN_DOOR": false,
                "DEACTIVATED": false,
                "CHANGE_PIN_ON_LOGIN": false,
                "ALIAS": "24",
                "NO_PIN": false,
                "USER_ID": "24",
                "NO_PIN_BIO": false,
                "ROLE_NAME": "caja",
                "CARD_IDENTIFIER": "",
                "NO_PIN_CARD": false,
                "NAME": "LAURA OSORIO",
                "NO_PIN_USER_ID": false,
                "FINGERPRINTS": "",
                "PIN": "33/fvQxTeNXuc",
                "NBR_OF_BAD_PIN": 0,
                "NBR_OF_LOGINS": -1,
                "LIST": true
            }
        }, {
            "KIND": "ADD",
            "USER": {
                "NO_PIN_DOOR": false,
                "DEACTIVATED": false,
                "CHANGE_PIN_ON_LOGIN": false,
                "ALIAS": "25",
                "NO_PIN": false,
                "USER_ID": "25",
                "NO_PIN_BIO": false,
                "ROLE_NAME": "caja",
                "CARD_IDENTIFIER": "",
                "NO_PIN_CARD": false,
                "NAME": "MONTSERRAT LOPEZ",
                "NO_PIN_USER_ID": false,
                "FINGERPRINTS": "",
                "PIN": "56706V.vDo81k",
                "NBR_OF_BAD_PIN": 0,
                "NBR_OF_LOGINS": -1,
                "LIST": true
            }
        }, {
            "KIND": "ADD",
            "USER": {
                "NO_PIN_DOOR": false,
                "DEACTIVATED": false,
                "CHANGE_PIN_ON_LOGIN": false,
                "ALIAS": "26",
                "NO_PIN": false,
                "USER_ID": "26",
                "NO_PIN_BIO": false,
                "ROLE_NAME": "caja",
                "CARD_IDENTIFIER": "",
                "NO_PIN_CARD": false,
                "NAME": "LAURA",
                "NO_PIN_USER_ID": false,
                "FINGERPRINTS": "",
                "PIN": "44U4IkEa/l1GM",
                "NBR_OF_BAD_PIN": 0,
                "NBR_OF_LOGINS": -1,
                "LIST": true
            }
        }, {
            "KIND": "ADD",
            "USER": {
                "NO_PIN_DOOR": false,
                "DEACTIVATED": false,
                "CHANGE_PIN_ON_LOGIN": false,
                "ALIAS": "27",
                "NO_PIN": false,
                "USER_ID": "27",
                "NO_PIN_BIO": false,
                "ROLE_NAME": "caja",
                "CARD_IDENTIFIER": "",
                "NO_PIN_CARD": false,
                "NAME": "MIRIAM",
                "NO_PIN_USER_ID": false,
                "FINGERPRINTS": "",
                "PIN": "183M/IEEDf2hc",
                "NBR_OF_BAD_PIN": 0,
                "NBR_OF_LOGINS": -1,
                "LIST": true
            }
        }, {
            "KIND": "ADD",
            "USER": {
                "NO_PIN_DOOR": false,
                "DEACTIVATED": false,
                "CHANGE_PIN_ON_LOGIN": false,
                "ALIAS": "28",
                "NO_PIN": false,
                "USER_ID": "28",
                "NO_PIN_BIO": false,
                "ROLE_NAME": "caja",
                "CARD_IDENTIFIER": "",
                "NO_PIN_CARD": false,
                "NAME": "SAFAE",
                "NO_PIN_USER_ID": false,
                "FINGERPRINTS": "",
                "PIN": "06/u9twv8GLoQ",
                "NBR_OF_BAD_PIN": 0,
                "NBR_OF_LOGINS": -1,
                "LIST": true
            }
        }, {
            "KIND": "ADD",
            "USER": {
                "NO_PIN_DOOR": false,
                "DEACTIVATED": false,
                "CHANGE_PIN_ON_LOGIN": false,
                "ALIAS": "29",
                "NO_PIN": false,
                "USER_ID": "29",
                "NO_PIN_BIO": false,
                "ROLE_NAME": "caja",
                "CARD_IDENTIFIER": "",
                "NO_PIN_CARD": false,
                "NAME": "IRENE",
                "NO_PIN_USER_ID": false,
                "FINGERPRINTS": "",
                "PIN": "98LFbhcTfhV7Y",
                "NBR_OF_BAD_PIN": 0,
                "NBR_OF_LOGINS": -1,
                "LIST": true
            }
        }, {
            "KIND": "ADD",
            "USER": {
                "NO_PIN_DOOR": false,
                "DEACTIVATED": false,
                "CHANGE_PIN_ON_LOGIN": false,
                "ALIAS": "3",
                "NO_PIN": false,
                "USER_ID": "3",
                "NO_PIN_BIO": false,
                "ROLE_NAME": "supervision",
                "CARD_IDENTIFIER": "",
                "NO_PIN_CARD": false,
                "NAME": "Nora Priego",
                "NO_PIN_USER_ID": false,
                "FINGERPRINTS": "",
                "PIN": "00PV9ynvk/MUI",
                "NBR_OF_BAD_PIN": 0,
                "NBR_OF_LOGINS": -1,
                "LIST": false
            }
        }, {
            "KIND": "ADD",
            "USER": {
                "NO_PIN_DOOR": false,
                "DEACTIVATED": false,
                "CHANGE_PIN_ON_LOGIN": false,
                "ALIAS": "30",
                "NO_PIN": false,
                "USER_ID": "30",
                "NO_PIN_BIO": false,
                "ROLE_NAME": "caja",
                "CARD_IDENTIFIER": "",
                "NO_PIN_CARD": false,
                "NAME": "CARMEN",
                "NO_PIN_USER_ID": false,
                "FINGERPRINTS": "",
                "PIN": "85XC.JqCILgYg",
                "NBR_OF_BAD_PIN": 0,
                "NBR_OF_LOGINS": -1,
                "LIST": true
            }
        }, {
            "KIND": "ADD",
            "USER": {
                "NO_PIN_DOOR": false,
                "DEACTIVATED": false,
                "CHANGE_PIN_ON_LOGIN": false,
                "ALIAS": "31",
                "NO_PIN": false,
                "USER_ID": "31",
                "NO_PIN_BIO": false,
                "ROLE_NAME": "caja",
                "CARD_IDENTIFIER": "",
                "NO_PIN_CARD": false,
                "NAME": "ISABEL VELASCO",
                "NO_PIN_USER_ID": false,
                "FINGERPRINTS": "",
                "PIN": "19nM3j97ZP776",
                "NBR_OF_BAD_PIN": 0,
                "NBR_OF_LOGINS": -1,
                "LIST": true
            }
        }, {
            "KIND": "ADD",
            "USER": {
                "NO_PIN_DOOR": false,
                "DEACTIVATED": false,
                "CHANGE_PIN_ON_LOGIN": false,
                "ALIAS": "32",
                "NO_PIN": false,
                "USER_ID": "32",
                "NO_PIN_BIO": false,
                "ROLE_NAME": "caja",
                "CARD_IDENTIFIER": "",
                "NO_PIN_CARD": false,
                "NAME": "MAR",
                "NO_PIN_USER_ID": false,
                "FINGERPRINTS": "",
                "PIN": "24kGCHvTZUByc",
                "NBR_OF_BAD_PIN": 0,
                "NBR_OF_LOGINS": -1,
                "LIST": true
            }
        }, {
            "KIND": "ADD",
            "USER": {
                "NO_PIN_DOOR": false,
                "DEACTIVATED": false,
                "CHANGE_PIN_ON_LOGIN": false,
                "ALIAS": "33",
                "NO_PIN": false,
                "USER_ID": "33",
                "NO_PIN_BIO": false,
                "ROLE_NAME": "caja",
                "CARD_IDENTIFIER": "",
                "NO_PIN_CARD": false,
                "NAME": "MARCELO",
                "NO_PIN_USER_ID": false,
                "FINGERPRINTS": "",
                "PIN": "19nM3j97ZP776",
                "NBR_OF_BAD_PIN": 0,
                "NBR_OF_LOGINS": -1,
                "LIST": true
            }
        }, {
            "KIND": "ADD",
            "USER": {
                "NO_PIN_DOOR": false,
                "DEACTIVATED": false,
                "CHANGE_PIN_ON_LOGIN": false,
                "ALIAS": "34",
                "NO_PIN": false,
                "USER_ID": "34",
                "NO_PIN_BIO": false,
                "ROLE_NAME": "caja",
                "CARD_IDENTIFIER": "",
                "NO_PIN_CARD": false,
                "NAME": "LUISA DUMAS",
                "NO_PIN_USER_ID": false,
                "FINGERPRINTS": "",
                "PIN": "89avwl9C6Y7b2",
                "NBR_OF_BAD_PIN": 0,
                "NBR_OF_LOGINS": -1,
                "LIST": true
            }
        }, {
            "KIND": "ADD",
            "USER": {
                "NO_PIN_DOOR": false,
                "DEACTIVATED": false,
                "CHANGE_PIN_ON_LOGIN": false,
                "ALIAS": "35",
                "NO_PIN": false,
                "USER_ID": "35",
                "NO_PIN_BIO": false,
                "ROLE_NAME": "caja",
                "CARD_IDENTIFIER": "",
                "NO_PIN_CARD": false,
                "NAME": "ANA CORTES",
                "NO_PIN_USER_ID": false,
                "FINGERPRINTS": "",
                "PIN": "68FBrVXZ9Qa.g",
                "NBR_OF_BAD_PIN": 0,
                "NBR_OF_LOGINS": -1,
                "LIST": true
            }
        }, {
            "KIND": "ADD",
            "USER": {
                "NO_PIN_DOOR": false,
                "DEACTIVATED": false,
                "CHANGE_PIN_ON_LOGIN": false,
                "ALIAS": "36",
                "NO_PIN": false,
                "USER_ID": "36",
                "NO_PIN_BIO": false,
                "ROLE_NAME": "caja",
                "CARD_IDENTIFIER": "",
                "NO_PIN_CARD": false,
                "NAME": "PAULA",
                "NO_PIN_USER_ID": false,
                "FINGERPRINTS": "",
                "PIN": "37mWlwIETE0Lg",
                "NBR_OF_BAD_PIN": 0,
                "NBR_OF_LOGINS": -1,
                "LIST": true
            }
        }, {
            "KIND": "ADD",
            "USER": {
                "NO_PIN_DOOR": false,
                "DEACTIVATED": false,
                "CHANGE_PIN_ON_LOGIN": false,
                "ALIAS": "37",
                "NO_PIN": false,
                "USER_ID": "37",
                "NO_PIN_BIO": false,
                "ROLE_NAME": "caja",
                "CARD_IDENTIFIER": "",
                "NO_PIN_CARD": false,
                "NAME": "MONICA AVILA",
                "NO_PIN_USER_ID": false,
                "FINGERPRINTS": "",
                "PIN": "70YwrRycyeT9k",
                "NBR_OF_BAD_PIN": 0,
                "NBR_OF_LOGINS": -1,
                "LIST": true
            }
        }, {
            "KIND": "ADD",
            "USER": {
                "NO_PIN_DOOR": false,
                "DEACTIVATED": false,
                "CHANGE_PIN_ON_LOGIN": false,
                "ALIAS": "38",
                "NO_PIN": false,
                "USER_ID": "38",
                "NO_PIN_BIO": false,
                "ROLE_NAME": "caja",
                "CARD_IDENTIFIER": "",
                "NO_PIN_CARD": false,
                "NAME": "MONICA BODOQUE",
                "NO_PIN_USER_ID": false,
                "FINGERPRINTS": "",
                "PIN": "35cgGQpTsqU8E",
                "NBR_OF_BAD_PIN": 0,
                "NBR_OF_LOGINS": -1,
                "LIST": true
            }
        }, {
            "KIND": "ADD",
            "USER": {
                "NO_PIN_DOOR": false,
                "DEACTIVATED": false,
                "CHANGE_PIN_ON_LOGIN": false,
                "ALIAS": "39",
                "NO_PIN": false,
                "USER_ID": "39",
                "NO_PIN_BIO": false,
                "ROLE_NAME": "caja",
                "CARD_IDENTIFIER": "",
                "NO_PIN_CARD": false,
                "NAME": "SONIA FERNANDEZ",
                "NO_PIN_USER_ID": false,
                "FINGERPRINTS": "",
                "PIN": "953JdR6wMqRxE",
                "NBR_OF_BAD_PIN": 0,
                "NBR_OF_LOGINS": -1,
                "LIST": true
            }
        }, {
            "KIND": "ADD",
            "USER": {
                "NO_PIN_DOOR": false,
                "DEACTIVATED": false,
                "CHANGE_PIN_ON_LOGIN": false,
                "ALIAS": "4",
                "NO_PIN": false,
                "USER_ID": "4",
                "NO_PIN_BIO": false,
                "ROLE_NAME": "supervision",
                "CARD_IDENTIFIER": "",
                "NO_PIN_CARD": false,
                "NAME": "BORJA CAMACHO",
                "NO_PIN_USER_ID": false,
                "FINGERPRINTS": "",
                "PIN": "10c0IeAyLtnLY",
                "NBR_OF_BAD_PIN": 0,
                "NBR_OF_LOGINS": -1,
                "LIST": true
            }
        }, {
            "KIND": "ADD",
            "USER": {
                "NO_PIN_DOOR": false,
                "DEACTIVATED": false,
                "CHANGE_PIN_ON_LOGIN": false,
                "ALIAS": "40",
                "NO_PIN": false,
                "USER_ID": "40",
                "NO_PIN_BIO": false,
                "ROLE_NAME": "caja",
                "CARD_IDENTIFIER": "",
                "NO_PIN_CARD": false,
                "NAME": "JUANLU",
                "NO_PIN_USER_ID": false,
                "FINGERPRINTS": "",
                "PIN": "45hqhR2ahUh76",
                "NBR_OF_BAD_PIN": 0,
                "NBR_OF_LOGINS": -1,
                "LIST": true
            }
        }, {
            "KIND": "ADD",
            "USER": {
                "NO_PIN_DOOR": false,
                "DEACTIVATED": false,
                "CHANGE_PIN_ON_LOGIN": false,
                "ALIAS": "41",
                "NO_PIN": false,
                "USER_ID": "41",
                "NO_PIN_BIO": false,
                "ROLE_NAME": "caja",
                "CARD_IDENTIFIER": "",
                "NO_PIN_CARD": false,
                "NAME": "RAQUEL MARIN",
                "NO_PIN_USER_ID": false,
                "FINGERPRINTS": "",
                "PIN": "195BrX6UUTwrc",
                "NBR_OF_BAD_PIN": 0,
                "NBR_OF_LOGINS": -1,
                "LIST": false
            }
        }, {
            "KIND": "ADD",
            "USER": {
                "NO_PIN_DOOR": false,
                "DEACTIVATED": false,
                "CHANGE_PIN_ON_LOGIN": false,
                "ALIAS": "42",
                "NO_PIN": false,
                "USER_ID": "42",
                "NO_PIN_BIO": false,
                "ROLE_NAME": "caja",
                "CARD_IDENTIFIER": "",
                "NO_PIN_CARD": false,
                "NAME": "JONATAN GARCIA",
                "NO_PIN_USER_ID": false,
                "FINGERPRINTS": "",
                "PIN": "32bWobKua9s6E",
                "NBR_OF_BAD_PIN": 0,
                "NBR_OF_LOGINS": -1,
                "LIST": true
            }
        }, {
            "KIND": "ADD",
            "USER": {
                "NO_PIN_DOOR": false,
                "DEACTIVATED": false,
                "CHANGE_PIN_ON_LOGIN": false,
                "ALIAS": "43",
                "NO_PIN": false,
                "USER_ID": "43",
                "NO_PIN_BIO": false,
                "ROLE_NAME": "caja",
                "CARD_IDENTIFIER": "",
                "NO_PIN_CARD": false,
                "NAME": "ISABELA",
                "NO_PIN_USER_ID": false,
                "FINGERPRINTS": "",
                "PIN": "14QGRDpg9KOuQ",
                "NBR_OF_BAD_PIN": 0,
                "NBR_OF_LOGINS": -1,
                "LIST": false
            }
        }, {
            "KIND": "ADD",
            "USER": {
                "NO_PIN_DOOR": false,
                "DEACTIVATED": false,
                "CHANGE_PIN_ON_LOGIN": false,
                "ALIAS": "44",
                "NO_PIN": false,
                "USER_ID": "44",
                "NO_PIN_BIO": false,
                "ROLE_NAME": "caja",
                "CARD_IDENTIFIER": "",
                "NO_PIN_CARD": false,
                "NAME": "ELSA",
                "NO_PIN_USER_ID": false,
                "FINGERPRINTS": "",
                "PIN": "37vV.rObFOmFo",
                "NBR_OF_BAD_PIN": 0,
                "NBR_OF_LOGINS": -1,
                "LIST": true
            }
        }, {
            "KIND": "ADD",
            "USER": {
                "NO_PIN_DOOR": false,
                "DEACTIVATED": false,
                "CHANGE_PIN_ON_LOGIN": false,
                "ALIAS": "45",
                "NO_PIN": false,
                "USER_ID": "45",
                "NO_PIN_BIO": false,
                "ROLE_NAME": "caja",
                "CARD_IDENTIFIER": "",
                "NO_PIN_CARD": false,
                "NAME": "LORENA RUS",
                "NO_PIN_USER_ID": false,
                "FINGERPRINTS": "",
                "PIN": "773zXwHr47lgo",
                "NBR_OF_BAD_PIN": 0,
                "NBR_OF_LOGINS": -1,
                "LIST": true
            }
        }, {
            "KIND": "ADD",
            "USER": {
                "NO_PIN_DOOR": false,
                "DEACTIVATED": false,
                "CHANGE_PIN_ON_LOGIN": false,
                "ALIAS": "46",
                "NO_PIN": false,
                "USER_ID": "46",
                "NO_PIN_BIO": false,
                "ROLE_NAME": "caja",
                "CARD_IDENTIFIER": "",
                "NO_PIN_CARD": false,
                "NAME": "MARTA MORON",
                "NO_PIN_USER_ID": false,
                "FINGERPRINTS": "",
                "PIN": "32IbgGFKpd3Uo",
                "NBR_OF_BAD_PIN": 0,
                "NBR_OF_LOGINS": -1,
                "LIST": true
            }
        }, {
            "KIND": "ADD",
            "USER": {
                "NO_PIN_DOOR": false,
                "DEACTIVATED": false,
                "CHANGE_PIN_ON_LOGIN": false,
                "ALIAS": "47",
                "NO_PIN": false,
                "USER_ID": "47",
                "NO_PIN_BIO": false,
                "ROLE_NAME": "caja",
                "CARD_IDENTIFIER": "",
                "NO_PIN_CARD": false,
                "NAME": "JOHANNA",
                "NO_PIN_USER_ID": false,
                "FINGERPRINTS": "",
                "PIN": "8384HpdFlXtLo",
                "NBR_OF_BAD_PIN": 0,
                "NBR_OF_LOGINS": -1,
                "LIST": true
            }
        }, {
            "KIND": "ADD",
            "USER": {
                "NO_PIN_DOOR": false,
                "DEACTIVATED": false,
                "CHANGE_PIN_ON_LOGIN": false,
                "ALIAS": "48",
                "NO_PIN": false,
                "USER_ID": "48",
                "NO_PIN_BIO": false,
                "ROLE_NAME": "caja",
                "CARD_IDENTIFIER": "",
                "NO_PIN_CARD": false,
                "NAME": "ROSA GARCIA",
                "NO_PIN_USER_ID": false,
                "FINGERPRINTS": "",
                "PIN": "70urn9fbbLe96",
                "NBR_OF_BAD_PIN": 0,
                "NBR_OF_LOGINS": -1,
                "LIST": false
            }
        }, {
            "KIND": "ADD",
            "USER": {
                "NO_PIN_DOOR": false,
                "DEACTIVATED": false,
                "CHANGE_PIN_ON_LOGIN": false,
                "ALIAS": "49",
                "NO_PIN": false,
                "USER_ID": "49",
                "NO_PIN_BIO": false,
                "ROLE_NAME": "caja",
                "CARD_IDENTIFIER": "",
                "NO_PIN_CARD": false,
                "NAME": "NEREA RIVAS",
                "NO_PIN_USER_ID": false,
                "FINGERPRINTS": "",
                "PIN": "27hmjKiWoJsjg",
                "NBR_OF_BAD_PIN": 0,
                "NBR_OF_LOGINS": -1,
                "LIST": true
            }
        }, {
            "KIND": "ADD",
            "USER": {
                "NO_PIN_DOOR": false,
                "DEACTIVATED": false,
                "CHANGE_PIN_ON_LOGIN": false,
                "ALIAS": "5",
                "NO_PIN": false,
                "USER_ID": "5",
                "NO_PIN_BIO": false,
                "ROLE_NAME": "supervision",
                "CARD_IDENTIFIER": "",
                "NO_PIN_CARD": false,
                "NAME": "MARIA HELOYSE",
                "NO_PIN_USER_ID": false,
                "FINGERPRINTS": "",
                "PIN": "33hB03rFdQdmA",
                "NBR_OF_BAD_PIN": 0,
                "NBR_OF_LOGINS": -1,
                "LIST": true
            }
        }, {
            "KIND": "ADD",
            "USER": {
                "NO_PIN_DOOR": false,
                "DEACTIVATED": false,
                "CHANGE_PIN_ON_LOGIN": false,
                "ALIAS": "50",
                "NO_PIN": false,
                "USER_ID": "50",
                "NO_PIN_BIO": false,
                "ROLE_NAME": "supervision",
                "CARD_IDENTIFIER": "",
                "NO_PIN_CARD": false,
                "NAME": "CRISTINA",
                "NO_PIN_USER_ID": false,
                "FINGERPRINTS": "",
                "PIN": "17CGXMjWb/Oxs",
                "NBR_OF_BAD_PIN": 0,
                "NBR_OF_LOGINS": -1,
                "LIST": false
            }
        }, {
            "KIND": "ADD",
            "USER": {
                "NO_PIN_DOOR": false,
                "DEACTIVATED": false,
                "CHANGE_PIN_ON_LOGIN": false,
                "ALIAS": "51",
                "NO_PIN": false,
                "USER_ID": "51",
                "NO_PIN_BIO": false,
                "ROLE_NAME": "caja",
                "CARD_IDENTIFIER": "",
                "NO_PIN_CARD": false,
                "NAME": "NOE DONAT",
                "NO_PIN_USER_ID": false,
                "FINGERPRINTS": "",
                "PIN": "41fRUeRwstGZw",
                "NBR_OF_BAD_PIN": 0,
                "NBR_OF_LOGINS": -1,
                "LIST": false
            }
        }, {
            "KIND": "ADD",
            "USER": {
                "NO_PIN_DOOR": false,
                "DEACTIVATED": false,
                "CHANGE_PIN_ON_LOGIN": false,
                "ALIAS": "52",
                "NO_PIN": false,
                "USER_ID": "52",
                "NO_PIN_BIO": false,
                "ROLE_NAME": "caja",
                "CARD_IDENTIFIER": "",
                "NO_PIN_CARD": false,
                "NAME": "SANDRA",
                "NO_PIN_USER_ID": false,
                "FINGERPRINTS": "",
                "PIN": "462QPAW1U9Bx.",
                "NBR_OF_BAD_PIN": 0,
                "NBR_OF_LOGINS": -1,
                "LIST": false
            }
        }, {
            "KIND": "ADD",
            "USER": {
                "NO_PIN_DOOR": false,
                "DEACTIVATED": false,
                "CHANGE_PIN_ON_LOGIN": false,
                "ALIAS": "53",
                "NO_PIN": false,
                "USER_ID": "53",
                "NO_PIN_BIO": false,
                "ROLE_NAME": "caja",
                "CARD_IDENTIFIER": "",
                "NO_PIN_CARD": false,
                "NAME": "MIRIAM MARQUEZ",
                "NO_PIN_USER_ID": false,
                "FINGERPRINTS": "",
                "PIN": "12AZjiek56hcM",
                "NBR_OF_BAD_PIN": 0,
                "NBR_OF_LOGINS": -1,
                "LIST": true
            }
        }, {
            "KIND": "ADD",
            "USER": {
                "NO_PIN_DOOR": false,
                "DEACTIVATED": false,
                "CHANGE_PIN_ON_LOGIN": false,
                "ALIAS": "54",
                "NO_PIN": false,
                "USER_ID": "54",
                "NO_PIN_BIO": false,
                "ROLE_NAME": "caja",
                "CARD_IDENTIFIER": "",
                "NO_PIN_CARD": false,
                "NAME": "MARTA REGALON",
                "NO_PIN_USER_ID": false,
                "FINGERPRINTS": "",
                "PIN": "29fILy7D.1u1s",
                "NBR_OF_BAD_PIN": 0,
                "NBR_OF_LOGINS": -1,
                "LIST": true
            }
        }, {
            "KIND": "ADD",
            "USER": {
                "NO_PIN_DOOR": false,
                "DEACTIVATED": false,
                "CHANGE_PIN_ON_LOGIN": false,
                "ALIAS": "55",
                "NO_PIN": false,
                "USER_ID": "55",
                "NO_PIN_BIO": false,
                "ROLE_NAME": "caja",
                "CARD_IDENTIFIER": "",
                "NO_PIN_CARD": false,
                "NAME": "CRIS F ",
                "NO_PIN_USER_ID": false,
                "FINGERPRINTS": "",
                "PIN": "84W8LNueUwzT6",
                "NBR_OF_BAD_PIN": 0,
                "NBR_OF_LOGINS": -1,
                "LIST": true
            }
        }, {
            "KIND": "ADD",
            "USER": {
                "NO_PIN_DOOR": false,
                "DEACTIVATED": false,
                "CHANGE_PIN_ON_LOGIN": false,
                "ALIAS": "56",
                "NO_PIN": false,
                "USER_ID": "56",
                "NO_PIN_BIO": false,
                "ROLE_NAME": "caja",
                "CARD_IDENTIFIER": "",
                "NO_PIN_CARD": false,
                "NAME": "MARIA REYES",
                "NO_PIN_USER_ID": false,
                "FINGERPRINTS": "",
                "PIN": "70BXWb7uw400o",
                "NBR_OF_BAD_PIN": 0,
                "NBR_OF_LOGINS": -1,
                "LIST": true
            }
        }, {
            "KIND": "ADD",
            "USER": {
                "NO_PIN_DOOR": false,
                "DEACTIVATED": false,
                "CHANGE_PIN_ON_LOGIN": false,
                "ALIAS": "57",
                "NO_PIN": false,
                "USER_ID": "57",
                "NO_PIN_BIO": false,
                "ROLE_NAME": "caja",
                "CARD_IDENTIFIER": "",
                "NO_PIN_CARD": false,
                "NAME": "TANIA",
                "NO_PIN_USER_ID": false,
                "FINGERPRINTS": "",
                "PIN": "855EFXMA7L3aw",
                "NBR_OF_BAD_PIN": 0,
                "NBR_OF_LOGINS": -1,
                "LIST": false
            }
        }, {
            "KIND": "ADD",
            "USER": {
                "NO_PIN_DOOR": false,
                "DEACTIVATED": false,
                "CHANGE_PIN_ON_LOGIN": false,
                "ALIAS": "58",
                "NO_PIN": false,
                "USER_ID": "58",
                "NO_PIN_BIO": false,
                "ROLE_NAME": "caja",
                "CARD_IDENTIFIER": "",
                "NO_PIN_CARD": false,
                "NAME": "AHLAM",
                "NO_PIN_USER_ID": false,
                "FINGERPRINTS": "",
                "PIN": "13ndWFh62/oZM",
                "NBR_OF_BAD_PIN": 0,
                "NBR_OF_LOGINS": -1,
                "LIST": false
            }
        }, {
            "KIND": "ADD",
            "USER": {
                "NO_PIN_DOOR": false,
                "DEACTIVATED": false,
                "CHANGE_PIN_ON_LOGIN": false,
                "ALIAS": "59",
                "NO_PIN": false,
                "USER_ID": "59",
                "NO_PIN_BIO": false,
                "ROLE_NAME": "caja",
                "CARD_IDENTIFIER": "",
                "NO_PIN_CARD": false,
                "NAME": "SORAYA",
                "NO_PIN_USER_ID": false,
                "FINGERPRINTS": "",
                "PIN": "40rlnpE6cL/5g",
                "NBR_OF_BAD_PIN": 0,
                "NBR_OF_LOGINS": -1,
                "LIST": false
            }
        }, {
            "KIND": "ADD",
            "USER": {
                "NO_PIN_DOOR": false,
                "DEACTIVATED": false,
                "CHANGE_PIN_ON_LOGIN": false,
                "ALIAS": "6",
                "NO_PIN": false,
                "USER_ID": "6",
                "NO_PIN_BIO": false,
                "ROLE_NAME": "caja",
                "CARD_IDENTIFIER": "",
                "NO_PIN_CARD": false,
                "NAME": "SILVIA BESTIT",
                "NO_PIN_USER_ID": false,
                "FINGERPRINTS": "",
                "PIN": "34gUtjkuz.Osc",
                "NBR_OF_BAD_PIN": 0,
                "NBR_OF_LOGINS": -1,
                "LIST": true
            }
        }, {
            "KIND": "ADD",
            "USER": {
                "NO_PIN_DOOR": false,
                "DEACTIVATED": false,
                "CHANGE_PIN_ON_LOGIN": false,
                "ALIAS": "7",
                "NO_PIN": false,
                "USER_ID": "7",
                "NO_PIN_BIO": false,
                "ROLE_NAME": "caja",
                "CARD_IDENTIFIER": "",
                "NO_PIN_CARD": false,
                "NAME": "Nerea Fernandez",
                "NO_PIN_USER_ID": false,
                "FINGERPRINTS": "",
                "PIN": "34gUtjkuz.Osc",
                "NBR_OF_BAD_PIN": 0,
                "NBR_OF_LOGINS": -1,
                "LIST": true
            }
        }, {
            "KIND": "ADD",
            "USER": {
                "NO_PIN_DOOR": false,
                "DEACTIVATED": false,
                "CHANGE_PIN_ON_LOGIN": false,
                "ALIAS": "8",
                "NO_PIN": false,
                "USER_ID": "8",
                "NO_PIN_BIO": false,
                "ROLE_NAME": "caja",
                "CARD_IDENTIFIER": "",
                "NO_PIN_CARD": false,
                "NAME": "Bouchra El Aghzaoui",
                "NO_PIN_USER_ID": false,
                "FINGERPRINTS": "",
                "PIN": "73tBvfkWNYiaM",
                "NBR_OF_BAD_PIN": 0,
                "NBR_OF_LOGINS": -1,
                "LIST": true
            }
        }, {
            "KIND": "ADD",
            "USER": {
                "NO_PIN_DOOR": false,
                "DEACTIVATED": false,
                "CHANGE_PIN_ON_LOGIN": false,
                "ALIAS": "9",
                "NO_PIN": false,
                "USER_ID": "9",
                "NO_PIN_BIO": false,
                "ROLE_NAME": "caja",
                "CARD_IDENTIFIER": "",
                "NO_PIN_CARD": false,
                "NAME": "EMMA PRADO",
                "NO_PIN_USER_ID": false,
                "FINGERPRINTS": "",
                "PIN": "81CMbBg2r.GBA",
                "NBR_OF_BAD_PIN": 0,
                "NBR_OF_LOGINS": -1,
                "LIST": true
            }
        }
    ]