{
  "LICENSE_ID": "bXHMzuhF4G9uJEBMQO0lShqk6cqwgTj3oI8mnS0tOOM=",
  "RECEIVER": "Server",
  "MACHINE_TYPE": "RCS",
  "MESSAGE_TYPE": "UserUpdateRequest",
  "DATE_TIME": "20200224 11:26:09.347",
  "SEQUENCE": 0,
  "TIME_ZONE_UTC_OFFSET": "+02:00",
  "MESSAGE_SEQUENCE": 146675,
  "MACHINE_ID": "a3dcdc96-7f45-4798-89c7-435536b431f7",
  "MD5": "a20246075749ad472507fa6861edfe79",
  "USERS": [
    {
      "USER": {
        "NO_PIN_CARD": false,
        "ALIAS": "0519",
        "CARD_IDENTIFIER": "",
        "FINGERPRINTS": "",
        "CHANGE_PIN_ON_LOGIN": false,
        "NO_PIN_DOOR": false,
        "ROLE_NAME": "PEAKASUTAJA",
        "NO_PIN_USER_ID": false,
        "LIST": false,
        "DEACTIVATED": false,
        "USER_ID": "0519",
        "NBR_OF_BAD_PIN": 0,
        "PIN": "70AdGAvR9URLs",
        "NBR_OF_LOGINS": -1,
        "NO_PIN_BIO": false,
        "NO_PIN": false,
        "NAME": "Tatjana Shashkova"
      },
      "KIND": "ADD"
    },
    {
      "USER": {
        "NO_PIN_CARD": false,
        "ALIAS": "0544",
        "CARD_IDENTIFIER": "",
        "FINGERPRINTS": "",
        "CHANGE_PIN_ON_LOGIN": false,
        "NO_PIN_DOOR": false,
        "ROLE_NAME": "KASUTAJA",
        "NO_PIN_USER_ID": false,
        "LIST": false,
        "DEACTIVATED": false,
        "USER_ID": "0544",
        "NBR_OF_BAD_PIN": 0,
        "PIN": "",
        "NBR_OF_LOGINS": -1,
        "NO_PIN_BIO": false,
        "NO_PIN": true,
        "NAME": "Malle Parbo"
      },
      "KIND": "ADD"
    },
    {
      "USER": {
        "NO_PIN_CARD": false,
        "ALIAS": "0574",
        "CARD_IDENTIFIER": "",
        "FINGERPRINTS": "",
        "CHANGE_PIN_ON_LOGIN": false,
        "NO_PIN_DOOR": false,
        "ROLE_NAME": "KASUTAJA",
        "NO_PIN_USER_ID": false,
        "LIST": false,
        "DEACTIVATED": false,
        "USER_ID": "0574",
        "NBR_OF_BAD_PIN": 0,
        "PIN": "",
        "NBR_OF_LOGINS": -1,
        "NO_PIN_BIO": false,
        "NO_PIN": true,
        "NAME": "Tatjana Kuznetsova"
      },
      "KIND": "ADD"
    },
    {
      "USER": {
        "NO_PIN_CARD": false,
        "ALIAS": "0588",
        "CARD_IDENTIFIER": "",
        "FINGERPRINTS": "",
        "CHANGE_PIN_ON_LOGIN": false,
        "NO_PIN_DOOR": false,
        "ROLE_NAME": "KASUTAJA",
        "NO_PIN_USER_ID": false,
        "LIST": false,
        "DEACTIVATED": false,
        "USER_ID": "0588",
        "NBR_OF_BAD_PIN": 0,
        "PIN": "",
        "NBR_OF_LOGINS": -1,
        "NO_PIN_BIO": false,
        "NO_PIN": true,
        "NAME": "Anne Visk"
      },
      "KIND": "ADD"
    },
    {
      "USER": {
        "NO_PIN_CARD": false,
        "ALIAS": "0608",
        "CARD_IDENTIFIER": "",
        "FINGERPRINTS": "",
        "CHANGE_PIN_ON_LOGIN": false,
        "NO_PIN_DOOR": false,
        "ROLE_NAME": "PEAKASUTAJA",
        "NO_PIN_USER_ID": false,
        "LIST": false,
        "DEACTIVATED": false,
        "USER_ID": "0608",
        "NBR_OF_BAD_PIN": 0,
        "PIN": "74legPkNiVAaU",
        "NBR_OF_LOGINS": -1,
        "NO_PIN_BIO": false,
        "NO_PIN": false,
        "NAME": "Natalja Sikorskaja"
      },
      "KIND": "ADD"
    },
    {
      "USER": {
        "NO_PIN_CARD": false,
        "ALIAS": "0651",
        "CARD_IDENTIFIER": "",
        "FINGERPRINTS": "",
        "CHANGE_PIN_ON_LOGIN": false,
        "NO_PIN_DOOR": false,
        "ROLE_NAME": "KASUTAJA",
        "NO_PIN_USER_ID": false,
        "LIST": false,
        "DEACTIVATED": false,
        "USER_ID": "0651",
        "NBR_OF_BAD_PIN": 0,
        "PIN": "",
        "NBR_OF_LOGINS": -1,
        "NO_PIN_BIO": false,
        "NO_PIN": true,
        "NAME": "Ruth Kaikkonen"
      },
      "KIND": "ADD"
    },
    {
      "USER": {
        "NO_PIN_CARD": false,
        "ALIAS": "0656",
        "CARD_IDENTIFIER": "",
        "FINGERPRINTS": "",
        "CHANGE_PIN_ON_LOGIN": false,
        "NO_PIN_DOOR": false,
        "ROLE_NAME": "KASUTAJA",
        "NO_PIN_USER_ID": false,
        "LIST": false,
        "DEACTIVATED": false,
        "USER_ID": "0656",
        "NBR_OF_BAD_PIN": 0,
        "PIN": "",
        "NBR_OF_LOGINS": -1,
        "NO_PIN_BIO": false,
        "NO_PIN": true,
        "NAME": "Tatjana Sulkovskaja"
      },
      "KIND": "ADD"
    },
    {
      "USER": {
        "NO_PIN_CARD": false,
        "ALIAS": "0662",
        "CARD_IDENTIFIER": "",
        "FINGERPRINTS": "",
        "CHANGE_PIN_ON_LOGIN": false,
        "NO_PIN_DOOR": false,
        "ROLE_NAME": "KASUTAJA",
        "NO_PIN_USER_ID": false,
        "LIST": false,
        "DEACTIVATED": false,
        "USER_ID": "0662",
        "NBR_OF_BAD_PIN": 0,
        "PIN": "",
        "NBR_OF_LOGINS": -1,
        "NO_PIN_BIO": false,
        "NO_PIN": true,
        "NAME": "Ljudmila Mozako"
      },
      "KIND": "ADD"
    },
    {
      "USER": {
        "NO_PIN_CARD": false,
        "ALIAS": "0666",
        "CARD_IDENTIFIER": "",
        "FINGERPRINTS": "",
        "CHANGE_PIN_ON_LOGIN": false,
        "NO_PIN_DOOR": false,
        "ROLE_NAME": "KASUTAJA",
        "NO_PIN_USER_ID": false,
        "LIST": false,
        "DEACTIVATED": false,
        "USER_ID": "0666",
        "NBR_OF_BAD_PIN": 0,
        "PIN": "",
        "NBR_OF_LOGINS": -1,
        "NO_PIN_BIO": false,
        "NO_PIN": true,
        "NAME": "Jelena Roganova"
      },
      "KIND": "ADD"
    },
    {
      "USER": {
        "NO_PIN_CARD": false,
        "ALIAS": "0816",
        "CARD_IDENTIFIER": "",
        "FINGERPRINTS": "",
        "CHANGE_PIN_ON_LOGIN": false,
        "NO_PIN_DOOR": false,
        "ROLE_NAME": "KASUTAJA",
        "NO_PIN_USER_ID": false,
        "LIST": false,
        "DEACTIVATED": false,
        "USER_ID": "0816",
        "NBR_OF_BAD_PIN": 0,
        "PIN": "",
        "NBR_OF_LOGINS": -1,
        "NO_PIN_BIO": false,
        "NO_PIN": true,
        "NAME": "Anne Pohla"
      },
      "KIND": "ADD"
    },
    {
      "USER": {
        "NO_PIN_CARD": false,
        "ALIAS": "0822",
        "CARD_IDENTIFIER": "",
        "FINGERPRINTS": "",
        "CHANGE_PIN_ON_LOGIN": false,
        "NO_PIN_DOOR": false,
        "ROLE_NAME": "KASUTAJA",
        "NO_PIN_USER_ID": false,
        "LIST": false,
        "DEACTIVATED": false,
        "USER_ID": "0822",
        "NBR_OF_BAD_PIN": 0,
        "PIN": "",
        "NBR_OF_LOGINS": -1,
        "NO_PIN_BIO": false,
        "NO_PIN": true,
        "NAME": "Vilje Bulgarin"
      },
      "KIND": "ADD"
    },
    {
      "USER": {
        "NO_PIN_CARD": false,
        "ALIAS": "1001",
        "CARD_IDENTIFIER": "0000000000000000102",
        "FINGERPRINTS": "",
        "CHANGE_PIN_ON_LOGIN": false,
        "NO_PIN_DOOR": false,
        "ROLE_NAME": "HOOLDUS",
        "NO_PIN_USER_ID": false,
        "LIST": false,
        "DEACTIVATED": false,
        "USER_ID": "1001",
        "NBR_OF_BAD_PIN": 0,
        "PIN": "93EaGUGC.M9uE",
        "NBR_OF_LOGINS": -1,
        "NO_PIN_BIO": false,
        "NO_PIN": false,
        "NAME": "HOOLDUS"
      },
      "KIND": "ADD"
    },
    {
      "USER": {
        "NO_PIN_CARD": false,
        "ALIAS": "1142",
        "CARD_IDENTIFIER": "",
        "FINGERPRINTS": "",
        "CHANGE_PIN_ON_LOGIN": false,
        "NO_PIN_DOOR": false,
        "ROLE_NAME": "KASUTAJA",
        "NO_PIN_USER_ID": false,
        "LIST": false,
        "DEACTIVATED": false,
        "USER_ID": "1142",
        "NBR_OF_BAD_PIN": 0,
        "PIN": "",
        "NBR_OF_LOGINS": -1,
        "NO_PIN_BIO": false,
        "NO_PIN": true,
        "NAME": "Merike Sinisalu"
      },
      "KIND": "ADD"
    },
    {
      "USER": {
        "NO_PIN_CARD": false,
        "ALIAS": "1200",
        "CARD_IDENTIFIER": "",
        "FINGERPRINTS": "",
        "CHANGE_PIN_ON_LOGIN": false,
        "NO_PIN_DOOR": false,
        "ROLE_NAME": "KASUTAJA",
        "NO_PIN_USER_ID": false,
        "LIST": false,
        "DEACTIVATED": false,
        "USER_ID": "1200",
        "NBR_OF_BAD_PIN": 0,
        "PIN": "",
        "NBR_OF_LOGINS": -1,
        "NO_PIN_BIO": false,
        "NO_PIN": true,
        "NAME": "Julia Derjagina"
      },
      "KIND": "ADD"
    },
    {
      "USER": {
        "NO_PIN_CARD": false,
        "ALIAS": "1256",
        "CARD_IDENTIFIER": "",
        "FINGERPRINTS": "",
        "CHANGE_PIN_ON_LOGIN": false,
        "NO_PIN_DOOR": false,
        "ROLE_NAME": "KASUTAJA",
        "NO_PIN_USER_ID": false,
        "LIST": false,
        "DEACTIVATED": false,
        "USER_ID": "1256",
        "NBR_OF_BAD_PIN": 0,
        "PIN": "",
        "NBR_OF_LOGINS": -1,
        "NO_PIN_BIO": false,
        "NO_PIN": true,
        "NAME": "Golovatsova Valentina"
      },
      "KIND": "ADD"
    },
    {
      "USER": {
        "NO_PIN_CARD": false,
        "ALIAS": "1294",
        "CARD_IDENTIFIER": "",
        "FINGERPRINTS": "",
        "CHANGE_PIN_ON_LOGIN": false,
        "NO_PIN_DOOR": false,
        "ROLE_NAME": "KASUTAJA",
        "NO_PIN_USER_ID": false,
        "LIST": false,
        "DEACTIVATED": false,
        "USER_ID": "1294",
        "NBR_OF_BAD_PIN": 0,
        "PIN": "",
        "NBR_OF_LOGINS": -1,
        "NO_PIN_BIO": false,
        "NO_PIN": true,
        "NAME": "Luule Lung"
      },
      "KIND": "ADD"
    },
    {
      "USER": {
        "NO_PIN_CARD": false,
        "ALIAS": "1346",
        "CARD_IDENTIFIER": "",
        "FINGERPRINTS": "",
        "CHANGE_PIN_ON_LOGIN": false,
        "NO_PIN_DOOR": false,
        "ROLE_NAME": "KASUTAJA",
        "NO_PIN_USER_ID": false,
        "LIST": false,
        "DEACTIVATED": false,
        "USER_ID": "1346",
        "NBR_OF_BAD_PIN": 0,
        "PIN": "",
        "NBR_OF_LOGINS": -1,
        "NO_PIN_BIO": false,
        "NO_PIN": true,
        "NAME": "Kiira Krasnoselskaja"
      },
      "KIND": "ADD"
    },
    {
      "USER": {
        "NO_PIN_CARD": false,
        "ALIAS": "1349",
        "CARD_IDENTIFIER": "",
        "FINGERPRINTS": "",
        "CHANGE_PIN_ON_LOGIN": false,
        "NO_PIN_DOOR": false,
        "ROLE_NAME": "KASUTAJA",
        "NO_PIN_USER_ID": false,
        "LIST": false,
        "DEACTIVATED": false,
        "USER_ID": "1349",
        "NBR_OF_BAD_PIN": 0,
        "PIN": "",
        "NBR_OF_LOGINS": -1,
        "NO_PIN_BIO": false,
        "NO_PIN": true,
        "NAME": "Tiina Tooming"
      },
      "KIND": "ADD"
    },
    {
      "USER": {
        "NO_PIN_CARD": false,
        "ALIAS": "1371",
        "CARD_IDENTIFIER": "",
        "FINGERPRINTS": "",
        "CHANGE_PIN_ON_LOGIN": false,
        "NO_PIN_DOOR": false,
        "ROLE_NAME": "KASUTAJA",
        "NO_PIN_USER_ID": false,
        "LIST": false,
        "DEACTIVATED": false,
        "USER_ID": "1371",
        "NBR_OF_BAD_PIN": 0,
        "PIN": "",
        "NBR_OF_LOGINS": -1,
        "NO_PIN_BIO": false,
        "NO_PIN": true,
        "NAME": "Leidi Niiholm"
      },
      "KIND": "ADD"
    },
    {
      "USER": {
        "NO_PIN_CARD": false,
        "ALIAS": "1415",
        "CARD_IDENTIFIER": "",
        "FINGERPRINTS": "",
        "CHANGE_PIN_ON_LOGIN": false,
        "NO_PIN_DOOR": false,
        "ROLE_NAME": "KASUTAJA",
        "NO_PIN_USER_ID": false,
        "LIST": false,
        "DEACTIVATED": false,
        "USER_ID": "1415",
        "NBR_OF_BAD_PIN": 0,
        "PIN": "",
        "NBR_OF_LOGINS": -1,
        "NO_PIN_BIO": false,
        "NO_PIN": true,
        "NAME": "Meeli Bellu"
      },
      "KIND": "ADD"
    },
    {
      "USER": {
        "NO_PIN_CARD": false,
        "ALIAS": "1446",
        "CARD_IDENTIFIER": "",
        "FINGERPRINTS": "",
        "CHANGE_PIN_ON_LOGIN": false,
        "NO_PIN_DOOR": false,
        "ROLE_NAME": "PEAKASUTAJA",
        "NO_PIN_USER_ID": false,
        "LIST": false,
        "DEACTIVATED": false,
        "USER_ID": "1446",
        "NBR_OF_BAD_PIN": 0,
        "PIN": "595TkGVhLtQA6",
        "NBR_OF_LOGINS": -1,
        "NO_PIN_BIO": false,
        "NO_PIN": false,
        "NAME": "Ingrid Plutus"
      },
      "KIND": "ADD"
    },
    {
      "USER": {
        "NO_PIN_CARD": false,
        "ALIAS": "1459",
        "CARD_IDENTIFIER": "",
        "FINGERPRINTS": "",
        "CHANGE_PIN_ON_LOGIN": false,
        "NO_PIN_DOOR": false,
        "ROLE_NAME": "KASUTAJA",
        "NO_PIN_USER_ID": false,
        "LIST": false,
        "DEACTIVATED": false,
        "USER_ID": "1459",
        "NBR_OF_BAD_PIN": 0,
        "PIN": "",
        "NBR_OF_LOGINS": -1,
        "NO_PIN_BIO": false,
        "NO_PIN": true,
        "NAME": "Merle Lepiku"
      },
      "KIND": "ADD"
    },
    {
      "USER": {
        "NO_PIN_CARD": false,
        "ALIAS": "1477",
        "CARD_IDENTIFIER": "",
        "FINGERPRINTS": "",
        "CHANGE_PIN_ON_LOGIN": false,
        "NO_PIN_DOOR": false,
        "ROLE_NAME": "KASUTAJA",
        "NO_PIN_USER_ID": false,
        "LIST": false,
        "DEACTIVATED": false,
        "USER_ID": "1477",
        "NBR_OF_BAD_PIN": 0,
        "PIN": "",
        "NBR_OF_LOGINS": -1,
        "NO_PIN_BIO": false,
        "NO_PIN": true,
        "NAME": "Tiina Keskula"
      },
      "KIND": "ADD"
    },
    {
      "USER": {
        "NO_PIN_CARD": false,
        "ALIAS": "1490",
        "CARD_IDENTIFIER": "",
        "FINGERPRINTS": "",
        "CHANGE_PIN_ON_LOGIN": false,
        "NO_PIN_DOOR": false,
        "ROLE_NAME": "KASUTAJA",
        "NO_PIN_USER_ID": false,
        "LIST": false,
        "DEACTIVATED": false,
        "USER_ID": "1490",
        "NBR_OF_BAD_PIN": 0,
        "PIN": "",
        "NBR_OF_LOGINS": -1,
        "NO_PIN_BIO": false,
        "NO_PIN": true,
        "NAME": "Ulle Haljastamm"
      },
      "KIND": "ADD"
    },
    {
      "USER": {
        "NO_PIN_CARD": false,
        "ALIAS": "1497",
        "CARD_IDENTIFIER": "",
        "FINGERPRINTS": "",
        "CHANGE_PIN_ON_LOGIN": false,
        "NO_PIN_DOOR": false,
        "ROLE_NAME": "KASUTAJA",
        "NO_PIN_USER_ID": false,
        "LIST": false,
        "DEACTIVATED": false,
        "USER_ID": "1497",
        "NBR_OF_BAD_PIN": 0,
        "PIN": "",
        "NBR_OF_LOGINS": -1,
        "NO_PIN_BIO": false,
        "NO_PIN": true,
        "NAME": "Meeli Siilivask"
      },
      "KIND": "ADD"
    },
    {
      "USER": {
        "NO_PIN_CARD": false,
        "ALIAS": "1501",
        "CARD_IDENTIFIER": "",
        "FINGERPRINTS": "",
        "CHANGE_PIN_ON_LOGIN": false,
        "NO_PIN_DOOR": false,
        "ROLE_NAME": "KASUTAJA",
        "NO_PIN_USER_ID": false,
        "LIST": false,
        "DEACTIVATED": false,
        "USER_ID": "1501",
        "NBR_OF_BAD_PIN": 0,
        "PIN": "",
        "NBR_OF_LOGINS": -1,
        "NO_PIN_BIO": false,
        "NO_PIN": true,
        "NAME": "Sirje Grant"
      },
      "KIND": "ADD"
    },
    {
      "USER": {
        "NO_PIN_CARD": false,
        "ALIAS": "1510",
        "CARD_IDENTIFIER": "",
        "FINGERPRINTS": "",
        "CHANGE_PIN_ON_LOGIN": false,
        "NO_PIN_DOOR": false,
        "ROLE_NAME": "KASUTAJA",
        "NO_PIN_USER_ID": false,
        "LIST": false,
        "DEACTIVATED": false,
        "USER_ID": "1510",
        "NBR_OF_BAD_PIN": 0,
        "PIN": "",
        "NBR_OF_LOGINS": -1,
        "NO_PIN_BIO": false,
        "NO_PIN": true,
        "NAME": "Heljo kivi"
      },
      "KIND": "ADD"
    },
    {
      "USER": {
        "NO_PIN_CARD": false,
        "ALIAS": "1516",
        "CARD_IDENTIFIER": "",
        "FINGERPRINTS": "",
        "CHANGE_PIN_ON_LOGIN": false,
        "NO_PIN_DOOR": false,
        "ROLE_NAME": "KASUTAJA",
        "NO_PIN_USER_ID": false,
        "LIST": false,
        "DEACTIVATED": false,
        "USER_ID": "1516",
        "NBR_OF_BAD_PIN": 0,
        "PIN": "",
        "NBR_OF_LOGINS": -1,
        "NO_PIN_BIO": false,
        "NO_PIN": true,
        "NAME": "Marina Kangro"
      },
      "KIND": "ADD"
    },
    {
      "USER": {
        "NO_PIN_CARD": false,
        "ALIAS": "1520",
        "CARD_IDENTIFIER": "",
        "FINGERPRINTS": "",
        "CHANGE_PIN_ON_LOGIN": false,
        "NO_PIN_DOOR": false,
        "ROLE_NAME": "KASUTAJA",
        "NO_PIN_USER_ID": false,
        "LIST": false,
        "DEACTIVATED": false,
        "USER_ID": "1520",
        "NBR_OF_BAD_PIN": 0,
        "PIN": "",
        "NBR_OF_LOGINS": -1,
        "NO_PIN_BIO": false,
        "NO_PIN": true,
        "NAME": "Eve Tamre"
      },
      "KIND": "ADD"
    },
    {
      "USER": {
        "NO_PIN_CARD": false,
        "ALIAS": "1522",
        "CARD_IDENTIFIER": "",
        "FINGERPRINTS": "",
        "CHANGE_PIN_ON_LOGIN": false,
        "NO_PIN_DOOR": false,
        "ROLE_NAME": "KASUTAJA",
        "NO_PIN_USER_ID": false,
        "LIST": false,
        "DEACTIVATED": false,
        "USER_ID": "1522",
        "NBR_OF_BAD_PIN": 0,
        "PIN": "",
        "NBR_OF_LOGINS": -1,
        "NO_PIN_BIO": false,
        "NO_PIN": true,
        "NAME": "Ive Vinni"
      },
      "KIND": "ADD"
    },
    {
      "USER": {
        "NO_PIN_CARD": false,
        "ALIAS": "1529",
        "CARD_IDENTIFIER": "",
        "FINGERPRINTS": "",
        "CHANGE_PIN_ON_LOGIN": false,
        "NO_PIN_DOOR": false,
        "ROLE_NAME": "KASUTAJA",
        "NO_PIN_USER_ID": false,
        "LIST": false,
        "DEACTIVATED": false,
        "USER_ID": "1529",
        "NBR_OF_BAD_PIN": 0,
        "PIN": "",
        "NBR_OF_LOGINS": -1,
        "NO_PIN_BIO": false,
        "NO_PIN": true,
        "NAME": "Janika Takk"
      },
      "KIND": "ADD"
    },
    {
      "USER": {
        "NO_PIN_CARD": false,
        "ALIAS": "1535",
        "CARD_IDENTIFIER": "",
        "FINGERPRINTS": "",
        "CHANGE_PIN_ON_LOGIN": false,
        "NO_PIN_DOOR": false,
        "ROLE_NAME": "KASUTAJA",
        "NO_PIN_USER_ID": false,
        "LIST": false,
        "DEACTIVATED": false,
        "USER_ID": "1535",
        "NBR_OF_BAD_PIN": 0,
        "PIN": "",
        "NBR_OF_LOGINS": -1,
        "NO_PIN_BIO": false,
        "NO_PIN": true,
        "NAME": "Kersti Kunberg"
      },
      "KIND": "ADD"
    },
    {
      "USER": {
        "NO_PIN_CARD": false,
        "ALIAS": "1538",
        "CARD_IDENTIFIER": "",
        "FINGERPRINTS": "",
        "CHANGE_PIN_ON_LOGIN": false,
        "NO_PIN_DOOR": false,
        "ROLE_NAME": "KASUTAJA",
        "NO_PIN_USER_ID": false,
        "LIST": false,
        "DEACTIVATED": false,
        "USER_ID": "1538",
        "NBR_OF_BAD_PIN": 0,
        "PIN": "",
        "NBR_OF_LOGINS": -1,
        "NO_PIN_BIO": false,
        "NO_PIN": true,
        "NAME": "Inge Rass"
      },
      "KIND": "ADD"
    },
    {
      "USER": {
        "NO_PIN_CARD": false,
        "ALIAS": "1539",
        "CARD_IDENTIFIER": "",
        "FINGERPRINTS": "",
        "CHANGE_PIN_ON_LOGIN": false,
        "NO_PIN_DOOR": false,
        "ROLE_NAME": "KASUTAJA",
        "NO_PIN_USER_ID": false,
        "LIST": false,
        "DEACTIVATED": false,
        "USER_ID": "1539",
        "NBR_OF_BAD_PIN": 0,
        "PIN": "",
        "NBR_OF_LOGINS": -1,
        "NO_PIN_BIO": false,
        "NO_PIN": true,
        "NAME": "Piret Orub"
      },
      "KIND": "ADD"
    },
    {
      "USER": {
        "NO_PIN_CARD": false,
        "ALIAS": "1540",
        "CARD_IDENTIFIER": "",
        "FINGERPRINTS": "",
        "CHANGE_PIN_ON_LOGIN": false,
        "NO_PIN_DOOR": false,
        "ROLE_NAME": "KASUTAJA",
        "NO_PIN_USER_ID": false,
        "LIST": false,
        "DEACTIVATED": false,
        "USER_ID": "1540",
        "NBR_OF_BAD_PIN": 0,
        "PIN": "",
        "NBR_OF_LOGINS": -1,
        "NO_PIN_BIO": false,
        "NO_PIN": true,
        "NAME": "Mare Ainjarv"
      },
      "KIND": "ADD"
    },
    {
      "USER": {
        "NO_PIN_CARD": false,
        "ALIAS": "1541",
        "CARD_IDENTIFIER": "",
        "FINGERPRINTS": "",
        "CHANGE_PIN_ON_LOGIN": false,
        "NO_PIN_DOOR": false,
        "ROLE_NAME": "KASUTAJA",
        "NO_PIN_USER_ID": false,
        "LIST": false,
        "DEACTIVATED": false,
        "USER_ID": "1541",
        "NBR_OF_BAD_PIN": 0,
        "PIN": "",
        "NBR_OF_LOGINS": -1,
        "NO_PIN_BIO": false,
        "NO_PIN": true,
        "NAME": "Kovalcinskiene Jekaterina"
      },
      "KIND": "ADD"
    },
    {
      "USER": {
        "NO_PIN_CARD": false,
        "ALIAS": "1542",
        "CARD_IDENTIFIER": "",
        "FINGERPRINTS": "",
        "CHANGE_PIN_ON_LOGIN": false,
        "NO_PIN_DOOR": false,
        "ROLE_NAME": "KASUTAJA",
        "NO_PIN_USER_ID": false,
        "LIST": false,
        "DEACTIVATED": false,
        "USER_ID": "1542",
        "NBR_OF_BAD_PIN": 0,
        "PIN": "",
        "NBR_OF_LOGINS": -1,
        "NO_PIN_BIO": false,
        "NO_PIN": true,
        "NAME": "Kairi Peel"
      },
      "KIND": "ADD"
    },
    {
      "USER": {
        "NO_PIN_CARD": false,
        "ALIAS": "1543",
        "CARD_IDENTIFIER": "",
        "FINGERPRINTS": "",
        "CHANGE_PIN_ON_LOGIN": false,
        "NO_PIN_DOOR": false,
        "ROLE_NAME": "KASUTAJA",
        "NO_PIN_USER_ID": false,
        "LIST": false,
        "DEACTIVATED": false,
        "USER_ID": "1543",
        "NBR_OF_BAD_PIN": 0,
        "PIN": "",
        "NBR_OF_LOGINS": -1,
        "NO_PIN_BIO": false,
        "NO_PIN": true,
        "NAME": "Moonika Kull"
      },
      "KIND": "ADD"
    },
    {
      "USER": {
        "NO_PIN_CARD": false,
        "ALIAS": "1579",
        "CARD_IDENTIFIER": "",
        "FINGERPRINTS": "",
        "CHANGE_PIN_ON_LOGIN": false,
        "NO_PIN_DOOR": false,
        "ROLE_NAME": "KASUTAJA",
        "NO_PIN_USER_ID": false,
        "LIST": false,
        "DEACTIVATED": false,
        "USER_ID": "1579",
        "NBR_OF_BAD_PIN": 0,
        "PIN": "",
        "NBR_OF_LOGINS": -1,
        "NO_PIN_BIO": false,
        "NO_PIN": true,
        "NAME": "Karin Kok"
      },
      "KIND": "ADD"
    },
    {
      "USER": {
        "NO_PIN_CARD": false,
        "ALIAS": "1581",
        "CARD_IDENTIFIER": "",
        "FINGERPRINTS": "",
        "CHANGE_PIN_ON_LOGIN": false,
        "NO_PIN_DOOR": false,
        "ROLE_NAME": "KASUTAJA",
        "NO_PIN_USER_ID": false,
        "LIST": false,
        "DEACTIVATED": false,
        "USER_ID": "1581",
        "NBR_OF_BAD_PIN": 0,
        "PIN": "",
        "NBR_OF_LOGINS": -1,
        "NO_PIN_BIO": false,
        "NO_PIN": true,
        "NAME": "Ruslan Pastusenko"
      },
      "KIND": "ADD"
    },
    {
      "USER": {
        "NO_PIN_CARD": false,
        "ALIAS": "1586",
        "CARD_IDENTIFIER": "",
        "FINGERPRINTS": "",
        "CHANGE_PIN_ON_LOGIN": false,
        "NO_PIN_DOOR": false,
        "ROLE_NAME": "KASUTAJA",
        "NO_PIN_USER_ID": false,
        "LIST": false,
        "DEACTIVATED": false,
        "USER_ID": "1586",
        "NBR_OF_BAD_PIN": 0,
        "PIN": "",
        "NBR_OF_LOGINS": -1,
        "NO_PIN_BIO": false,
        "NO_PIN": true,
        "NAME": "Ulle Kubarsepp"
      },
      "KIND": "ADD"
    },
    {
      "USER": {
        "NO_PIN_CARD": false,
        "ALIAS": "1589",
        "CARD_IDENTIFIER": "",
        "FINGERPRINTS": "",
        "CHANGE_PIN_ON_LOGIN": false,
        "NO_PIN_DOOR": false,
        "ROLE_NAME": "KASUTAJA",
        "NO_PIN_USER_ID": false,
        "LIST": false,
        "DEACTIVATED": false,
        "USER_ID": "1589",
        "NBR_OF_BAD_PIN": 0,
        "PIN": "",
        "NBR_OF_LOGINS": -1,
        "NO_PIN_BIO": false,
        "NO_PIN": true,
        "NAME": "Valentina Siskova"
      },
      "KIND": "ADD"
    },
    {
      "USER": {
        "NO_PIN_CARD": false,
        "ALIAS": "1591",
        "CARD_IDENTIFIER": "",
        "FINGERPRINTS": "",
        "CHANGE_PIN_ON_LOGIN": false,
        "NO_PIN_DOOR": false,
        "ROLE_NAME": "KASUTAJA",
        "NO_PIN_USER_ID": false,
        "LIST": false,
        "DEACTIVATED": false,
        "USER_ID": "1591",
        "NBR_OF_BAD_PIN": 0,
        "PIN": "",
        "NBR_OF_LOGINS": -1,
        "NO_PIN_BIO": false,
        "NO_PIN": true,
        "NAME": "Siret Kao"
      },
      "KIND": "ADD"
    },
    {
      "USER": {
        "NO_PIN_CARD": false,
        "ALIAS": "1592",
        "CARD_IDENTIFIER": "",
        "FINGERPRINTS": "",
        "CHANGE_PIN_ON_LOGIN": false,
        "NO_PIN_DOOR": false,
        "ROLE_NAME": "KASUTAJA",
        "NO_PIN_USER_ID": false,
        "LIST": false,
        "DEACTIVATED": false,
        "USER_ID": "1592",
        "NBR_OF_BAD_PIN": 0,
        "PIN": "",
        "NBR_OF_LOGINS": -1,
        "NO_PIN_BIO": false,
        "NO_PIN": true,
        "NAME": "Aime Jaaska"
      },
      "KIND": "ADD"
    },
    {
      "USER": {
        "NO_PIN_CARD": false,
        "ALIAS": "1594",
        "CARD_IDENTIFIER": "",
        "FINGERPRINTS": "",
        "CHANGE_PIN_ON_LOGIN": false,
        "NO_PIN_DOOR": false,
        "ROLE_NAME": "KASUTAJA",
        "NO_PIN_USER_ID": false,
        "LIST": false,
        "DEACTIVATED": false,
        "USER_ID": "1594",
        "NBR_OF_BAD_PIN": 0,
        "PIN": "",
        "NBR_OF_LOGINS": -1,
        "NO_PIN_BIO": false,
        "NO_PIN": true,
        "NAME": "Virve Endrikson"
      },
      "KIND": "ADD"
    },
    {
      "USER": {
        "NO_PIN_CARD": false,
        "ALIAS": "1595",
        "CARD_IDENTIFIER": "",
        "FINGERPRINTS": "",
        "CHANGE_PIN_ON_LOGIN": false,
        "NO_PIN_DOOR": false,
        "ROLE_NAME": "KASUTAJA",
        "NO_PIN_USER_ID": false,
        "LIST": false,
        "DEACTIVATED": false,
        "USER_ID": "1595",
        "NBR_OF_BAD_PIN": 0,
        "PIN": "",
        "NBR_OF_LOGINS": -1,
        "NO_PIN_BIO": false,
        "NO_PIN": true,
        "NAME": "Hiie Grauberg"
      },
      "KIND": "ADD"
    },
    {
      "USER": {
        "NO_PIN_CARD": false,
        "ALIAS": "1596",
        "CARD_IDENTIFIER": "",
        "FINGERPRINTS": "",
        "CHANGE_PIN_ON_LOGIN": false,
        "NO_PIN_DOOR": false,
        "ROLE_NAME": "KASUTAJA",
        "NO_PIN_USER_ID": false,
        "LIST": false,
        "DEACTIVATED": false,
        "USER_ID": "1596",
        "NBR_OF_BAD_PIN": 0,
        "PIN": "",
        "NBR_OF_LOGINS": -1,
        "NO_PIN_BIO": false,
        "NO_PIN": true,
        "NAME": "Anneli Apri"
      },
      "KIND": "ADD"
    },
    {
      "USER": {
        "NO_PIN_CARD": false,
        "ALIAS": "1598",
        "CARD_IDENTIFIER": "",
        "FINGERPRINTS": "",
        "CHANGE_PIN_ON_LOGIN": false,
        "NO_PIN_DOOR": false,
        "ROLE_NAME": "PEAKASUTAJA",
        "NO_PIN_USER_ID": false,
        "LIST": false,
        "DEACTIVATED": false,
        "USER_ID": "1598",
        "NBR_OF_BAD_PIN": 0,
        "PIN": "99.zqpoDLvP/Q",
        "NBR_OF_LOGINS": -1,
        "NO_PIN_BIO": false,
        "NO_PIN": false,
        "NAME": "Kulli Laigo"
      },
      "KIND": "ADD"
    },
    {
      "USER": {
        "NO_PIN_CARD": false,
        "ALIAS": "1608",
        "CARD_IDENTIFIER": "",
        "FINGERPRINTS": "",
        "CHANGE_PIN_ON_LOGIN": false,
        "NO_PIN_DOOR": false,
        "ROLE_NAME": "KASUTAJA",
        "NO_PIN_USER_ID": false,
        "LIST": false,
        "DEACTIVATED": false,
        "USER_ID": "1608",
        "NBR_OF_BAD_PIN": 0,
        "PIN": "",
        "NBR_OF_LOGINS": -1,
        "NO_PIN_BIO": false,
        "NO_PIN": true,
        "NAME": "Evi Roosaar"
      },
      "KIND": "ADD"
    },
    {
      "USER": {
        "NO_PIN_CARD": false,
        "ALIAS": "1609",
        "CARD_IDENTIFIER": "",
        "FINGERPRINTS": "",
        "CHANGE_PIN_ON_LOGIN": false,
        "NO_PIN_DOOR": false,
        "ROLE_NAME": "KASUTAJA",
        "NO_PIN_USER_ID": false,
        "LIST": false,
        "DEACTIVATED": false,
        "USER_ID": "1609",
        "NBR_OF_BAD_PIN": 0,
        "PIN": "",
        "NBR_OF_LOGINS": -1,
        "NO_PIN_BIO": false,
        "NO_PIN": true,
        "NAME": "Agnes Jurgens"
      },
      "KIND": "ADD"
    },
    {
      "USER": {
        "NO_PIN_CARD": false,
        "ALIAS": "1614",
        "CARD_IDENTIFIER": "",
        "FINGERPRINTS": "",
        "CHANGE_PIN_ON_LOGIN": false,
        "NO_PIN_DOOR": false,
        "ROLE_NAME": "KASUTAJA",
        "NO_PIN_USER_ID": false,
        "LIST": false,
        "DEACTIVATED": false,
        "USER_ID": "1614",
        "NBR_OF_BAD_PIN": 0,
        "PIN": "",
        "NBR_OF_LOGINS": -1,
        "NO_PIN_BIO": false,
        "NO_PIN": true,
        "NAME": "Zanna Telesuk"
      },
      "KIND": "ADD"
    },
    {
      "USER": {
        "NO_PIN_CARD": false,
        "ALIAS": "1617",
        "CARD_IDENTIFIER": "",
        "FINGERPRINTS": "",
        "CHANGE_PIN_ON_LOGIN": false,
        "NO_PIN_DOOR": false,
        "ROLE_NAME": "KASUTAJA",
        "NO_PIN_USER_ID": false,
        "LIST": false,
        "DEACTIVATED": false,
        "USER_ID": "1617",
        "NBR_OF_BAD_PIN": 0,
        "PIN": "",
        "NBR_OF_LOGINS": -1,
        "NO_PIN_BIO": false,
        "NO_PIN": true,
        "NAME": "Signe Kullamaa"
      },
      "KIND": "ADD"
    },
    {
      "USER": {
        "NO_PIN_CARD": false,
        "ALIAS": "1620",
        "CARD_IDENTIFIER": "",
        "FINGERPRINTS": "",
        "CHANGE_PIN_ON_LOGIN": false,
        "NO_PIN_DOOR": false,
        "ROLE_NAME": "KASUTAJA",
        "NO_PIN_USER_ID": false,
        "LIST": false,
        "DEACTIVATED": false,
        "USER_ID": "1620",
        "NBR_OF_BAD_PIN": 0,
        "PIN": "",
        "NBR_OF_LOGINS": -1,
        "NO_PIN_BIO": false,
        "NO_PIN": true,
        "NAME": "Reet Viickberg"
      },
      "KIND": "ADD"
    },
    {
      "USER": {
        "NO_PIN_CARD": false,
        "ALIAS": "1626",
        "CARD_IDENTIFIER": "",
        "FINGERPRINTS": "",
        "CHANGE_PIN_ON_LOGIN": false,
        "NO_PIN_DOOR": false,
        "ROLE_NAME": "KASUTAJA",
        "NO_PIN_USER_ID": false,
        "LIST": false,
        "DEACTIVATED": false,
        "USER_ID": "1626",
        "NBR_OF_BAD_PIN": 0,
        "PIN": "",
        "NBR_OF_LOGINS": -1,
        "NO_PIN_BIO": false,
        "NO_PIN": true,
        "NAME": "Anneli Viikmann"
      },
      "KIND": "ADD"
    },
    {
      "USER": {
        "NO_PIN_CARD": false,
        "ALIAS": "1641",
        "CARD_IDENTIFIER": "",
        "FINGERPRINTS": "",
        "CHANGE_PIN_ON_LOGIN": false,
        "NO_PIN_DOOR": false,
        "ROLE_NAME": "KASUTAJA",
        "NO_PIN_USER_ID": false,
        "LIST": false,
        "DEACTIVATED": false,
        "USER_ID": "1641",
        "NBR_OF_BAD_PIN": 0,
        "PIN": "",
        "NBR_OF_LOGINS": -1,
        "NO_PIN_BIO": false,
        "NO_PIN": true,
        "NAME": "Ene Sostar"
      },
      "KIND": "ADD"
    },
    {
      "USER": {
        "NO_PIN_CARD": false,
        "ALIAS": "1643",
        "CARD_IDENTIFIER": "",
        "FINGERPRINTS": "",
        "CHANGE_PIN_ON_LOGIN": false,
        "NO_PIN_DOOR": false,
        "ROLE_NAME": "KASUTAJA",
        "NO_PIN_USER_ID": false,
        "LIST": false,
        "DEACTIVATED": false,
        "USER_ID": "1643",
        "NBR_OF_BAD_PIN": 0,
        "PIN": "",
        "NBR_OF_LOGINS": -1,
        "NO_PIN_BIO": false,
        "NO_PIN": true,
        "NAME": "Malle Aedma"
      },
      "KIND": "ADD"
    },
    {
      "USER": {
        "NO_PIN_CARD": false,
        "ALIAS": "1644",
        "CARD_IDENTIFIER": "",
        "FINGERPRINTS": "",
        "CHANGE_PIN_ON_LOGIN": false,
        "NO_PIN_DOOR": false,
        "ROLE_NAME": "KASUTAJA",
        "NO_PIN_USER_ID": false,
        "LIST": false,
        "DEACTIVATED": false,
        "USER_ID": "1644",
        "NBR_OF_BAD_PIN": 0,
        "PIN": "",
        "NBR_OF_LOGINS": -1,
        "NO_PIN_BIO": false,
        "NO_PIN": true,
        "NAME": "Terje Kerb"
      },
      "KIND": "ADD"
    },
    {
      "USER": {
        "NO_PIN_CARD": false,
        "ALIAS": "1651",
        "CARD_IDENTIFIER": "",
        "FINGERPRINTS": "",
        "CHANGE_PIN_ON_LOGIN": false,
        "NO_PIN_DOOR": false,
        "ROLE_NAME": "KASUTAJA",
        "NO_PIN_USER_ID": false,
        "LIST": false,
        "DEACTIVATED": false,
        "USER_ID": "1651",
        "NBR_OF_BAD_PIN": 0,
        "PIN": "",
        "NBR_OF_LOGINS": -1,
        "NO_PIN_BIO": false,
        "NO_PIN": true,
        "NAME": "Ruta Pruks"
      },
      "KIND": "ADD"
    },
    {
      "USER": {
        "NO_PIN_CARD": false,
        "ALIAS": "1657",
        "CARD_IDENTIFIER": "",
        "FINGERPRINTS": "",
        "CHANGE_PIN_ON_LOGIN": false,
        "NO_PIN_DOOR": false,
        "ROLE_NAME": "KASUTAJA",
        "NO_PIN_USER_ID": false,
        "LIST": false,
        "DEACTIVATED": false,
        "USER_ID": "1657",
        "NBR_OF_BAD_PIN": 0,
        "PIN": "",
        "NBR_OF_LOGINS": -1,
        "NO_PIN_BIO": false,
        "NO_PIN": true,
        "NAME": "Laina Zuravleva"
      },
      "KIND": "ADD"
    },
    {
      "USER": {
        "NO_PIN_CARD": false,
        "ALIAS": "1660",
        "CARD_IDENTIFIER": "",
        "FINGERPRINTS": "",
        "CHANGE_PIN_ON_LOGIN": false,
        "NO_PIN_DOOR": false,
        "ROLE_NAME": "KASUTAJA",
        "NO_PIN_USER_ID": false,
        "LIST": false,
        "DEACTIVATED": false,
        "USER_ID": "1660",
        "NBR_OF_BAD_PIN": 0,
        "PIN": "",
        "NBR_OF_LOGINS": -1,
        "NO_PIN_BIO": false,
        "NO_PIN": true,
        "NAME": "Reet Rebane"
      },
      "KIND": "ADD"
    },
    {
      "USER": {
        "NO_PIN_CARD": false,
        "ALIAS": "1662",
        "CARD_IDENTIFIER": "",
        "FINGERPRINTS": "",
        "CHANGE_PIN_ON_LOGIN": false,
        "NO_PIN_DOOR": false,
        "ROLE_NAME": "KASUTAJA",
        "NO_PIN_USER_ID": false,
        "LIST": false,
        "DEACTIVATED": false,
        "USER_ID": "1662",
        "NBR_OF_BAD_PIN": 0,
        "PIN": "",
        "NBR_OF_LOGINS": -1,
        "NO_PIN_BIO": false,
        "NO_PIN": true,
        "NAME": "Ulle Joks"
      },
      "KIND": "ADD"
    },
    {
      "USER": {
        "NO_PIN_CARD": false,
        "ALIAS": "1667",
        "CARD_IDENTIFIER": "",
        "FINGERPRINTS": "",
        "CHANGE_PIN_ON_LOGIN": false,
        "NO_PIN_DOOR": false,
        "ROLE_NAME": "KASUTAJA",
        "NO_PIN_USER_ID": false,
        "LIST": false,
        "DEACTIVATED": false,
        "USER_ID": "1667",
        "NBR_OF_BAD_PIN": 0,
        "PIN": "",
        "NBR_OF_LOGINS": -1,
        "NO_PIN_BIO": false,
        "NO_PIN": true,
        "NAME": "Liilia Smolina"
      },
      "KIND": "ADD"
    },
    {
      "USER": {
        "NO_PIN_CARD": false,
        "ALIAS": "1679",
        "CARD_IDENTIFIER": "",
        "FINGERPRINTS": "",
        "CHANGE_PIN_ON_LOGIN": false,
        "NO_PIN_DOOR": false,
        "ROLE_NAME": "KASUTAJA",
        "NO_PIN_USER_ID": false,
        "LIST": false,
        "DEACTIVATED": false,
        "USER_ID": "1679",
        "NBR_OF_BAD_PIN": 0,
        "PIN": "",
        "NBR_OF_LOGINS": -1,
        "NO_PIN_BIO": false,
        "NO_PIN": true,
        "NAME": "Ulle Tohv"
      },
      "KIND": "ADD"
    },
    {
      "USER": {
        "NO_PIN_CARD": false,
        "ALIAS": "1685",
        "CARD_IDENTIFIER": "",
        "FINGERPRINTS": "",
        "CHANGE_PIN_ON_LOGIN": false,
        "NO_PIN_DOOR": false,
        "ROLE_NAME": "KASUTAJA",
        "NO_PIN_USER_ID": false,
        "LIST": false,
        "DEACTIVATED": false,
        "USER_ID": "1685",
        "NBR_OF_BAD_PIN": 0,
        "PIN": "",
        "NBR_OF_LOGINS": -1,
        "NO_PIN_BIO": false,
        "NO_PIN": true,
        "NAME": "Helle Pilli"
      },
      "KIND": "ADD"
    },
    {
      "USER": {
        "NO_PIN_CARD": false,
        "ALIAS": "1696",
        "CARD_IDENTIFIER": "",
        "FINGERPRINTS": "",
        "CHANGE_PIN_ON_LOGIN": false,
        "NO_PIN_DOOR": false,
        "ROLE_NAME": "KASUTAJA",
        "NO_PIN_USER_ID": false,
        "LIST": false,
        "DEACTIVATED": false,
        "USER_ID": "1696",
        "NBR_OF_BAD_PIN": 0,
        "PIN": "",
        "NBR_OF_LOGINS": -1,
        "NO_PIN_BIO": false,
        "NO_PIN": true,
        "NAME": "Helle Talts"
      },
      "KIND": "ADD"
    },
    {
      "USER": {
        "NO_PIN_CARD": false,
        "ALIAS": "1701",
        "CARD_IDENTIFIER": "",
        "FINGERPRINTS": "",
        "CHANGE_PIN_ON_LOGIN": false,
        "NO_PIN_DOOR": false,
        "ROLE_NAME": "KASUTAJA",
        "NO_PIN_USER_ID": false,
        "LIST": false,
        "DEACTIVATED": false,
        "USER_ID": "1701",
        "NBR_OF_BAD_PIN": 0,
        "PIN": "",
        "NBR_OF_LOGINS": -1,
        "NO_PIN_BIO": false,
        "NO_PIN": true,
        "NAME": "Loone Astula"
      },
      "KIND": "ADD"
    },
    {
      "USER": {
        "NO_PIN_CARD": false,
        "ALIAS": "1702",
        "CARD_IDENTIFIER": "",
        "FINGERPRINTS": "",
        "CHANGE_PIN_ON_LOGIN": false,
        "NO_PIN_DOOR": false,
        "ROLE_NAME": "KASUTAJA",
        "NO_PIN_USER_ID": false,
        "LIST": false,
        "DEACTIVATED": false,
        "USER_ID": "1702",
        "NBR_OF_BAD_PIN": 0,
        "PIN": "",
        "NBR_OF_LOGINS": -1,
        "NO_PIN_BIO": false,
        "NO_PIN": true,
        "NAME": "Marina Kaasik"
      },
      "KIND": "ADD"
    },
    {
      "USER": {
        "NO_PIN_CARD": false,
        "ALIAS": "1703",
        "CARD_IDENTIFIER": "",
        "FINGERPRINTS": "",
        "CHANGE_PIN_ON_LOGIN": false,
        "NO_PIN_DOOR": false,
        "ROLE_NAME": "KASUTAJA",
        "NO_PIN_USER_ID": false,
        "LIST": false,
        "DEACTIVATED": false,
        "USER_ID": "1703",
        "NBR_OF_BAD_PIN": 0,
        "PIN": "",
        "NBR_OF_LOGINS": -1,
        "NO_PIN_BIO": false,
        "NO_PIN": true,
        "NAME": "Kerli Karjus"
      },
      "KIND": "ADD"
    },
    {
      "USER": {
        "NO_PIN_CARD": false,
        "ALIAS": "1707",
        "CARD_IDENTIFIER": "",
        "FINGERPRINTS": "",
        "CHANGE_PIN_ON_LOGIN": false,
        "NO_PIN_DOOR": false,
        "ROLE_NAME": "KASUTAJA",
        "NO_PIN_USER_ID": false,
        "LIST": false,
        "DEACTIVATED": false,
        "USER_ID": "1707",
        "NBR_OF_BAD_PIN": 0,
        "PIN": "",
        "NBR_OF_LOGINS": -1,
        "NO_PIN_BIO": false,
        "NO_PIN": true,
        "NAME": "Gaire Sarak"
      },
      "KIND": "ADD"
    },
    {
      "USER": {
        "NO_PIN_CARD": false,
        "ALIAS": "1709",
        "CARD_IDENTIFIER": "",
        "FINGERPRINTS": "",
        "CHANGE_PIN_ON_LOGIN": false,
        "NO_PIN_DOOR": false,
        "ROLE_NAME": "KASUTAJA",
        "NO_PIN_USER_ID": false,
        "LIST": false,
        "DEACTIVATED": false,
        "USER_ID": "1709",
        "NBR_OF_BAD_PIN": 0,
        "PIN": "",
        "NBR_OF_LOGINS": -1,
        "NO_PIN_BIO": false,
        "NO_PIN": true,
        "NAME": "Aliise Andre"
      },
      "KIND": "ADD"
    },
    {
      "USER": {
        "NO_PIN_CARD": false,
        "ALIAS": "1712",
        "CARD_IDENTIFIER": "",
        "FINGERPRINTS": "",
        "CHANGE_PIN_ON_LOGIN": false,
        "NO_PIN_DOOR": false,
        "ROLE_NAME": "KASUTAJA",
        "NO_PIN_USER_ID": false,
        "LIST": false,
        "DEACTIVATED": false,
        "USER_ID": "1712",
        "NBR_OF_BAD_PIN": 0,
        "PIN": "",
        "NBR_OF_LOGINS": -1,
        "NO_PIN_BIO": false,
        "NO_PIN": true,
        "NAME": "Gerdrud Maela"
      },
      "KIND": "ADD"
    },
    {
      "USER": {
        "NO_PIN_CARD": false,
        "ALIAS": "1766",
        "CARD_IDENTIFIER": "",
        "FINGERPRINTS": "",
        "CHANGE_PIN_ON_LOGIN": false,
        "NO_PIN_DOOR": false,
        "ROLE_NAME": "KASUTAJA",
        "NO_PIN_USER_ID": false,
        "LIST": false,
        "DEACTIVATED": false,
        "USER_ID": "1766",
        "NBR_OF_BAD_PIN": 0,
        "PIN": "",
        "NBR_OF_LOGINS": -1,
        "NO_PIN_BIO": false,
        "NO_PIN": true,
        "NAME": "Eda Kalmus"
      },
      "KIND": "ADD"
    },
    {
      "USER": {
        "NO_PIN_CARD": false,
        "ALIAS": "1770",
        "CARD_IDENTIFIER": "",
        "FINGERPRINTS": "",
        "CHANGE_PIN_ON_LOGIN": false,
        "NO_PIN_DOOR": false,
        "ROLE_NAME": "KASUTAJA",
        "NO_PIN_USER_ID": false,
        "LIST": false,
        "DEACTIVATED": false,
        "USER_ID": "1770",
        "NBR_OF_BAD_PIN": 0,
        "PIN": "",
        "NBR_OF_LOGINS": -1,
        "NO_PIN_BIO": false,
        "NO_PIN": true,
        "NAME": "Tiina Kukk"
      },
      "KIND": "ADD"
    },
    {
      "USER": {
        "NO_PIN_CARD": false,
        "ALIAS": "1811",
        "CARD_IDENTIFIER": "",
        "FINGERPRINTS": "",
        "CHANGE_PIN_ON_LOGIN": false,
        "NO_PIN_DOOR": false,
        "ROLE_NAME": "KASUTAJA",
        "NO_PIN_USER_ID": false,
        "LIST": false,
        "DEACTIVATED": false,
        "USER_ID": "1811",
        "NBR_OF_BAD_PIN": 0,
        "PIN": "",
        "NBR_OF_LOGINS": -1,
        "NO_PIN_BIO": false,
        "NO_PIN": true,
        "NAME": "Eeva Lillepea"
      },
      "KIND": "ADD"
    },
    {
      "USER": {
        "NO_PIN_CARD": false,
        "ALIAS": "1812",
        "CARD_IDENTIFIER": "",
        "FINGERPRINTS": "",
        "CHANGE_PIN_ON_LOGIN": false,
        "NO_PIN_DOOR": false,
        "ROLE_NAME": "KASUTAJA",
        "NO_PIN_USER_ID": false,
        "LIST": false,
        "DEACTIVATED": false,
        "USER_ID": "1812",
        "NBR_OF_BAD_PIN": 0,
        "PIN": "",
        "NBR_OF_LOGINS": -1,
        "NO_PIN_BIO": false,
        "NO_PIN": true,
        "NAME": "Ljubov Zavarzina"
      },
      "KIND": "ADD"
    },
    {
      "USER": {
        "NO_PIN_CARD": false,
        "ALIAS": "1813",
        "CARD_IDENTIFIER": "",
        "FINGERPRINTS": "",
        "CHANGE_PIN_ON_LOGIN": false,
        "NO_PIN_DOOR": false,
        "ROLE_NAME": "KASUTAJA",
        "NO_PIN_USER_ID": false,
        "LIST": false,
        "DEACTIVATED": false,
        "USER_ID": "1813",
        "NBR_OF_BAD_PIN": 0,
        "PIN": "",
        "NBR_OF_LOGINS": -1,
        "NO_PIN_BIO": false,
        "NO_PIN": true,
        "NAME": "Ello Tagel"
      },
      "KIND": "ADD"
    },
    {
      "USER": {
        "NO_PIN_CARD": false,
        "ALIAS": "1816",
        "CARD_IDENTIFIER": "",
        "FINGERPRINTS": "",
        "CHANGE_PIN_ON_LOGIN": false,
        "NO_PIN_DOOR": false,
        "ROLE_NAME": "KASUTAJA",
        "NO_PIN_USER_ID": false,
        "LIST": false,
        "DEACTIVATED": false,
        "USER_ID": "1816",
        "NBR_OF_BAD_PIN": 0,
        "PIN": "",
        "NBR_OF_LOGINS": -1,
        "NO_PIN_BIO": false,
        "NO_PIN": true,
        "NAME": "Heli September"
      },
      "KIND": "ADD"
    },
    {
      "USER": {
        "NO_PIN_CARD": false,
        "ALIAS": "1825",
        "CARD_IDENTIFIER": "",
        "FINGERPRINTS": "",
        "CHANGE_PIN_ON_LOGIN": false,
        "NO_PIN_DOOR": false,
        "ROLE_NAME": "KASUTAJA",
        "NO_PIN_USER_ID": false,
        "LIST": false,
        "DEACTIVATED": false,
        "USER_ID": "1825",
        "NBR_OF_BAD_PIN": 0,
        "PIN": "",
        "NBR_OF_LOGINS": -1,
        "NO_PIN_BIO": false,
        "NO_PIN": true,
        "NAME": "Helle Abiramm"
      },
      "KIND": "ADD"
    },
    {
      "USER": {
        "NO_PIN_CARD": false,
        "ALIAS": "1826",
        "CARD_IDENTIFIER": "",
        "FINGERPRINTS": "",
        "CHANGE_PIN_ON_LOGIN": false,
        "NO_PIN_DOOR": false,
        "ROLE_NAME": "KASUTAJA",
        "NO_PIN_USER_ID": false,
        "LIST": false,
        "DEACTIVATED": false,
        "USER_ID": "1826",
        "NBR_OF_BAD_PIN": 0,
        "PIN": "",
        "NBR_OF_LOGINS": -1,
        "NO_PIN_BIO": false,
        "NO_PIN": true,
        "NAME": "Lea-Sirje Laane"
      },
      "KIND": "ADD"
    },
    {
      "USER": {
        "NO_PIN_CARD": false,
        "ALIAS": "1835",
        "CARD_IDENTIFIER": "",
        "FINGERPRINTS": "",
        "CHANGE_PIN_ON_LOGIN": false,
        "NO_PIN_DOOR": false,
        "ROLE_NAME": "KASUTAJA",
        "NO_PIN_USER_ID": false,
        "LIST": false,
        "DEACTIVATED": false,
        "USER_ID": "1835",
        "NBR_OF_BAD_PIN": 0,
        "PIN": "",
        "NBR_OF_LOGINS": -1,
        "NO_PIN_BIO": false,
        "NO_PIN": true,
        "NAME": "Inge Magar"
      },
      "KIND": "ADD"
    },
    {
      "USER": {
        "NO_PIN_CARD": false,
        "ALIAS": "1854",
        "CARD_IDENTIFIER": "",
        "FINGERPRINTS": "",
        "CHANGE_PIN_ON_LOGIN": false,
        "NO_PIN_DOOR": false,
        "ROLE_NAME": "KASUTAJA",
        "NO_PIN_USER_ID": false,
        "LIST": false,
        "DEACTIVATED": false,
        "USER_ID": "1854",
        "NBR_OF_BAD_PIN": 0,
        "PIN": "",
        "NBR_OF_LOGINS": -1,
        "NO_PIN_BIO": false,
        "NO_PIN": true,
        "NAME": "Leili Andrijainen"
      },
      "KIND": "ADD"
    },
    {
      "USER": {
        "NO_PIN_CARD": false,
        "ALIAS": "1864",
        "CARD_IDENTIFIER": "",
        "FINGERPRINTS": "",
        "CHANGE_PIN_ON_LOGIN": false,
        "NO_PIN_DOOR": false,
        "ROLE_NAME": "KASUTAJA",
        "NO_PIN_USER_ID": false,
        "LIST": false,
        "DEACTIVATED": false,
        "USER_ID": "1864",
        "NBR_OF_BAD_PIN": 0,
        "PIN": "",
        "NBR_OF_LOGINS": -1,
        "NO_PIN_BIO": false,
        "NO_PIN": true,
        "NAME": "Maret Pollu"
      },
      "KIND": "ADD"
    },
    {
      "USER": {
        "NO_PIN_CARD": false,
        "ALIAS": "1865",
        "CARD_IDENTIFIER": "",
        "FINGERPRINTS": "",
        "CHANGE_PIN_ON_LOGIN": false,
        "NO_PIN_DOOR": false,
        "ROLE_NAME": "KASUTAJA",
        "NO_PIN_USER_ID": false,
        "LIST": false,
        "DEACTIVATED": false,
        "USER_ID": "1865",
        "NBR_OF_BAD_PIN": 0,
        "PIN": "",
        "NBR_OF_LOGINS": -1,
        "NO_PIN_BIO": false,
        "NO_PIN": true,
        "NAME": "Maire Audla"
      },
      "KIND": "ADD"
    },
    {
      "USER": {
        "NO_PIN_CARD": false,
        "ALIAS": "1868",
        "CARD_IDENTIFIER": "",
        "FINGERPRINTS": "",
        "CHANGE_PIN_ON_LOGIN": false,
        "NO_PIN_DOOR": false,
        "ROLE_NAME": "KASUTAJA",
        "NO_PIN_USER_ID": false,
        "LIST": false,
        "DEACTIVATED": false,
        "USER_ID": "1868",
        "NBR_OF_BAD_PIN": 0,
        "PIN": "",
        "NBR_OF_LOGINS": -1,
        "NO_PIN_BIO": false,
        "NO_PIN": true,
        "NAME": "Marika Parko"
      },
      "KIND": "ADD"
    },
    {
      "USER": {
        "NO_PIN_CARD": false,
        "ALIAS": "1870",
        "CARD_IDENTIFIER": "",
        "FINGERPRINTS": "",
        "CHANGE_PIN_ON_LOGIN": false,
        "NO_PIN_DOOR": false,
        "ROLE_NAME": "KASUTAJA",
        "NO_PIN_USER_ID": false,
        "LIST": false,
        "DEACTIVATED": false,
        "USER_ID": "1870",
        "NBR_OF_BAD_PIN": 0,
        "PIN": "",
        "NBR_OF_LOGINS": -1,
        "NO_PIN_BIO": false,
        "NO_PIN": true,
        "NAME": "Svetlana Kosyanchenko"
      },
      "KIND": "ADD"
    },
    {
      "USER": {
        "NO_PIN_CARD": false,
        "ALIAS": "1871",
        "CARD_IDENTIFIER": "",
        "FINGERPRINTS": "",
        "CHANGE_PIN_ON_LOGIN": false,
        "NO_PIN_DOOR": false,
        "ROLE_NAME": "KASUTAJA",
        "NO_PIN_USER_ID": false,
        "LIST": false,
        "DEACTIVATED": false,
        "USER_ID": "1871",
        "NBR_OF_BAD_PIN": 0,
        "PIN": "",
        "NBR_OF_LOGINS": -1,
        "NO_PIN_BIO": false,
        "NO_PIN": true,
        "NAME": "Stahhovskaja Ljudmila"
      },
      "KIND": "ADD"
    },
    {
      "USER": {
        "NO_PIN_CARD": false,
        "ALIAS": "1872",
        "CARD_IDENTIFIER": "",
        "FINGERPRINTS": "",
        "CHANGE_PIN_ON_LOGIN": false,
        "NO_PIN_DOOR": false,
        "ROLE_NAME": "KASUTAJA",
        "NO_PIN_USER_ID": false,
        "LIST": false,
        "DEACTIVATED": false,
        "USER_ID": "1872",
        "NBR_OF_BAD_PIN": 0,
        "PIN": "",
        "NBR_OF_LOGINS": -1,
        "NO_PIN_BIO": false,
        "NO_PIN": true,
        "NAME": "Maire Kruusimae"
      },
      "KIND": "ADD"
    },
    {
      "USER": {
        "NO_PIN_CARD": false,
        "ALIAS": "1878",
        "CARD_IDENTIFIER": "",
        "FINGERPRINTS": "",
        "CHANGE_PIN_ON_LOGIN": false,
        "NO_PIN_DOOR": false,
        "ROLE_NAME": "KASUTAJA",
        "NO_PIN_USER_ID": false,
        "LIST": false,
        "DEACTIVATED": false,
        "USER_ID": "1878",
        "NBR_OF_BAD_PIN": 0,
        "PIN": "",
        "NBR_OF_LOGINS": -1,
        "NO_PIN_BIO": false,
        "NO_PIN": true,
        "NAME": "Kristiina Kullamaa"
      },
      "KIND": "ADD"
    },
    {
      "USER": {
        "NO_PIN_CARD": false,
        "ALIAS": "1880",
        "CARD_IDENTIFIER": "",
        "FINGERPRINTS": "",
        "CHANGE_PIN_ON_LOGIN": false,
        "NO_PIN_DOOR": false,
        "ROLE_NAME": "KASUTAJA",
        "NO_PIN_USER_ID": false,
        "LIST": false,
        "DEACTIVATED": false,
        "USER_ID": "1880",
        "NBR_OF_BAD_PIN": 0,
        "PIN": "",
        "NBR_OF_LOGINS": -1,
        "NO_PIN_BIO": false,
        "NO_PIN": true,
        "NAME": "Lia Tsurilova"
      },
      "KIND": "ADD"
    },
    {
      "USER": {
        "NO_PIN_CARD": false,
        "ALIAS": "1881",
        "CARD_IDENTIFIER": "",
        "FINGERPRINTS": "",
        "CHANGE_PIN_ON_LOGIN": false,
        "NO_PIN_DOOR": false,
        "ROLE_NAME": "KASUTAJA",
        "NO_PIN_USER_ID": false,
        "LIST": false,
        "DEACTIVATED": false,
        "USER_ID": "1881",
        "NBR_OF_BAD_PIN": 0,
        "PIN": "",
        "NBR_OF_LOGINS": -1,
        "NO_PIN_BIO": false,
        "NO_PIN": true,
        "NAME": "Ene Eelsalu"
      },
      "KIND": "ADD"
    },
    {
      "USER": {
        "NO_PIN_CARD": false,
        "ALIAS": "1882",
        "CARD_IDENTIFIER": "",
        "FINGERPRINTS": "",
        "CHANGE_PIN_ON_LOGIN": false,
        "NO_PIN_DOOR": false,
        "ROLE_NAME": "KASUTAJA",
        "NO_PIN_USER_ID": false,
        "LIST": false,
        "DEACTIVATED": false,
        "USER_ID": "1882",
        "NBR_OF_BAD_PIN": 0,
        "PIN": "",
        "NBR_OF_LOGINS": -1,
        "NO_PIN_BIO": false,
        "NO_PIN": true,
        "NAME": "Linda Soppe"
      },
      "KIND": "ADD"
    },
    {
      "USER": {
        "NO_PIN_CARD": false,
        "ALIAS": "1884",
        "CARD_IDENTIFIER": "",
        "FINGERPRINTS": "",
        "CHANGE_PIN_ON_LOGIN": false,
        "NO_PIN_DOOR": false,
        "ROLE_NAME": "KASUTAJA",
        "NO_PIN_USER_ID": false,
        "LIST": false,
        "DEACTIVATED": false,
        "USER_ID": "1884",
        "NBR_OF_BAD_PIN": 0,
        "PIN": "",
        "NBR_OF_LOGINS": -1,
        "NO_PIN_BIO": false,
        "NO_PIN": true,
        "NAME": "Marge Mitt"
      },
      "KIND": "ADD"
    },
    {
      "USER": {
        "NO_PIN_CARD": false,
        "ALIAS": "1896",
        "CARD_IDENTIFIER": "",
        "FINGERPRINTS": "",
        "CHANGE_PIN_ON_LOGIN": false,
        "NO_PIN_DOOR": false,
        "ROLE_NAME": "KASUTAJA",
        "NO_PIN_USER_ID": false,
        "LIST": false,
        "DEACTIVATED": false,
        "USER_ID": "1896",
        "NBR_OF_BAD_PIN": 0,
        "PIN": "",
        "NBR_OF_LOGINS": -1,
        "NO_PIN_BIO": false,
        "NO_PIN": true,
        "NAME": "Inge Kobi"
      },
      "KIND": "ADD"
    },
    {
      "USER": {
        "NO_PIN_CARD": false,
        "ALIAS": "1899",
        "CARD_IDENTIFIER": "",
        "FINGERPRINTS": "",
        "CHANGE_PIN_ON_LOGIN": false,
        "NO_PIN_DOOR": false,
        "ROLE_NAME": "KASUTAJA",
        "NO_PIN_USER_ID": false,
        "LIST": false,
        "DEACTIVATED": false,
        "USER_ID": "1899",
        "NBR_OF_BAD_PIN": 0,
        "PIN": "",
        "NBR_OF_LOGINS": -1,
        "NO_PIN_BIO": false,
        "NO_PIN": true,
        "NAME": "Pille Reimo"
      },
      "KIND": "ADD"
    },
    {
      "USER": {
        "NO_PIN_CARD": false,
        "ALIAS": "1907",
        "CARD_IDENTIFIER": "",
        "FINGERPRINTS": "",
        "CHANGE_PIN_ON_LOGIN": false,
        "NO_PIN_DOOR": false,
        "ROLE_NAME": "KASUTAJA",
        "NO_PIN_USER_ID": false,
        "LIST": false,
        "DEACTIVATED": false,
        "USER_ID": "1907",
        "NBR_OF_BAD_PIN": 0,
        "PIN": "",
        "NBR_OF_LOGINS": -1,
        "NO_PIN_BIO": false,
        "NO_PIN": true,
        "NAME": "Maret Sulengo"
      },
      "KIND": "ADD"
    },
    {
      "USER": {
        "NO_PIN_CARD": false,
        "ALIAS": "1909",
        "CARD_IDENTIFIER": "",
        "FINGERPRINTS": "",
        "CHANGE_PIN_ON_LOGIN": false,
        "NO_PIN_DOOR": false,
        "ROLE_NAME": "KASUTAJA",
        "NO_PIN_USER_ID": false,
        "LIST": false,
        "DEACTIVATED": false,
        "USER_ID": "1909",
        "NBR_OF_BAD_PIN": 0,
        "PIN": "",
        "NBR_OF_LOGINS": -1,
        "NO_PIN_BIO": false,
        "NO_PIN": true,
        "NAME": "Valentina Katkova"
      },
      "KIND": "ADD"
    },
    {
      "USER": {
        "NO_PIN_CARD": false,
        "ALIAS": "1911",
        "CARD_IDENTIFIER": "0000000000000000104",
        "FINGERPRINTS": "",
        "CHANGE_PIN_ON_LOGIN": false,
        "NO_PIN_DOOR": false,
        "ROLE_NAME": "KASUTAJA",
        "NO_PIN_USER_ID": false,
        "LIST": false,
        "DEACTIVATED": false,
        "USER_ID": "1911",
        "NBR_OF_BAD_PIN": 0,
        "PIN": "10n4Ym.G1eijA",
        "NBR_OF_LOGINS": -1,
        "NO_PIN_BIO": false,
        "NO_PIN": true,
        "NAME": "G4S TEST"
      },
      "KIND": "ADD"
    },
    {
      "USER": {
        "NO_PIN_CARD": false,
        "ALIAS": "1919",
        "CARD_IDENTIFIER": "",
        "FINGERPRINTS": "",
        "CHANGE_PIN_ON_LOGIN": false,
        "NO_PIN_DOOR": false,
        "ROLE_NAME": "KASUTAJA",
        "NO_PIN_USER_ID": false,
        "LIST": false,
        "DEACTIVATED": false,
        "USER_ID": "1919",
        "NBR_OF_BAD_PIN": 0,
        "PIN": "",
        "NBR_OF_LOGINS": -1,
        "NO_PIN_BIO": false,
        "NO_PIN": true,
        "NAME": "Maie Ojaste"
      },
      "KIND": "ADD"
    },
    {
      "USER": {
        "NO_PIN_CARD": false,
        "ALIAS": "1920",
        "CARD_IDENTIFIER": "",
        "FINGERPRINTS": "",
        "CHANGE_PIN_ON_LOGIN": false,
        "NO_PIN_DOOR": false,
        "ROLE_NAME": "KASUTAJA",
        "NO_PIN_USER_ID": false,
        "LIST": false,
        "DEACTIVATED": false,
        "USER_ID": "1920",
        "NBR_OF_BAD_PIN": 0,
        "PIN": "",
        "NBR_OF_LOGINS": -1,
        "NO_PIN_BIO": false,
        "NO_PIN": true,
        "NAME": "Reet Arro"
      },
      "KIND": "ADD"
    },
    {
      "USER": {
        "NO_PIN_CARD": false,
        "ALIAS": "1929",
        "CARD_IDENTIFIER": "",
        "FINGERPRINTS": "",
        "CHANGE_PIN_ON_LOGIN": false,
        "NO_PIN_DOOR": false,
        "ROLE_NAME": "KASUTAJA",
        "NO_PIN_USER_ID": false,
        "LIST": false,
        "DEACTIVATED": false,
        "USER_ID": "1929",
        "NBR_OF_BAD_PIN": 0,
        "PIN": "",
        "NBR_OF_LOGINS": -1,
        "NO_PIN_BIO": false,
        "NO_PIN": true,
        "NAME": "Tiina Lillemagi"
      },
      "KIND": "ADD"
    },
    {
      "USER": {
        "NO_PIN_CARD": false,
        "ALIAS": "1937",
        "CARD_IDENTIFIER": "",
        "FINGERPRINTS": "",
        "CHANGE_PIN_ON_LOGIN": false,
        "NO_PIN_DOOR": false,
        "ROLE_NAME": "KASUTAJA",
        "NO_PIN_USER_ID": false,
        "LIST": false,
        "DEACTIVATED": false,
        "USER_ID": "1937",
        "NBR_OF_BAD_PIN": 0,
        "PIN": "",
        "NBR_OF_LOGINS": -1,
        "NO_PIN_BIO": false,
        "NO_PIN": true,
        "NAME": "Birgit Raud"
      },
      "KIND": "ADD"
    },
    {
      "USER": {
        "NO_PIN_CARD": false,
        "ALIAS": "1943",
        "CARD_IDENTIFIER": "",
        "FINGERPRINTS": "",
        "CHANGE_PIN_ON_LOGIN": false,
        "NO_PIN_DOOR": false,
        "ROLE_NAME": "KASUTAJA",
        "NO_PIN_USER_ID": false,
        "LIST": false,
        "DEACTIVATED": false,
        "USER_ID": "1943",
        "NBR_OF_BAD_PIN": 0,
        "PIN": "",
        "NBR_OF_LOGINS": -1,
        "NO_PIN_BIO": false,
        "NO_PIN": true,
        "NAME": "Meirly Parko"
      },
      "KIND": "ADD"
    },
    {
      "USER": {
        "NO_PIN_CARD": false,
        "ALIAS": "1946",
        "CARD_IDENTIFIER": "",
        "FINGERPRINTS": "",
        "CHANGE_PIN_ON_LOGIN": false,
        "NO_PIN_DOOR": false,
        "ROLE_NAME": "KASUTAJA",
        "NO_PIN_USER_ID": false,
        "LIST": false,
        "DEACTIVATED": false,
        "USER_ID": "1946",
        "NBR_OF_BAD_PIN": 0,
        "PIN": "",
        "NBR_OF_LOGINS": -1,
        "NO_PIN_BIO": false,
        "NO_PIN": true,
        "NAME": "Pilvi Kriisa"
      },
      "KIND": "ADD"
    },
    {
      "USER": {
        "NO_PIN_CARD": false,
        "ALIAS": "1952",
        "CARD_IDENTIFIER": "",
        "FINGERPRINTS": "",
        "CHANGE_PIN_ON_LOGIN": false,
        "NO_PIN_DOOR": false,
        "ROLE_NAME": "KASUTAJA",
        "NO_PIN_USER_ID": false,
        "LIST": false,
        "DEACTIVATED": false,
        "USER_ID": "1952",
        "NBR_OF_BAD_PIN": 0,
        "PIN": "",
        "NBR_OF_LOGINS": -1,
        "NO_PIN_BIO": false,
        "NO_PIN": true,
        "NAME": "Eha Liiver"
      },
      "KIND": "ADD"
    },
    {
      "USER": {
        "NO_PIN_CARD": false,
        "ALIAS": "1954",
        "CARD_IDENTIFIER": "",
        "FINGERPRINTS": "",
        "CHANGE_PIN_ON_LOGIN": false,
        "NO_PIN_DOOR": false,
        "ROLE_NAME": "KASUTAJA",
        "NO_PIN_USER_ID": false,
        "LIST": false,
        "DEACTIVATED": false,
        "USER_ID": "1954",
        "NBR_OF_BAD_PIN": 0,
        "PIN": "",
        "NBR_OF_LOGINS": -1,
        "NO_PIN_BIO": false,
        "NO_PIN": true,
        "NAME": "Sirje Vaard"
      },
      "KIND": "ADD"
    },
    {
      "USER": {
        "NO_PIN_CARD": false,
        "ALIAS": "1956",
        "CARD_IDENTIFIER": "",
        "FINGERPRINTS": "",
        "CHANGE_PIN_ON_LOGIN": false,
        "NO_PIN_DOOR": false,
        "ROLE_NAME": "KASUTAJA",
        "NO_PIN_USER_ID": false,
        "LIST": false,
        "DEACTIVATED": false,
        "USER_ID": "1956",
        "NBR_OF_BAD_PIN": 0,
        "PIN": "",
        "NBR_OF_LOGINS": -1,
        "NO_PIN_BIO": false,
        "NO_PIN": true,
        "NAME": "Ulle Herman"
      },
      "KIND": "ADD"
    },
    {
      "USER": {
        "NO_PIN_CARD": false,
        "ALIAS": "1958",
        "CARD_IDENTIFIER": "",
        "FINGERPRINTS": "",
        "CHANGE_PIN_ON_LOGIN": false,
        "NO_PIN_DOOR": false,
        "ROLE_NAME": "KASUTAJA",
        "NO_PIN_USER_ID": false,
        "LIST": false,
        "DEACTIVATED": false,
        "USER_ID": "1958",
        "NBR_OF_BAD_PIN": 0,
        "PIN": "",
        "NBR_OF_LOGINS": -1,
        "NO_PIN_BIO": false,
        "NO_PIN": true,
        "NAME": "Marina Karro"
      },
      "KIND": "ADD"
    },
    {
      "USER": {
        "NO_PIN_CARD": false,
        "ALIAS": "1970",
        "CARD_IDENTIFIER": "",
        "FINGERPRINTS": "",
        "CHANGE_PIN_ON_LOGIN": false,
        "NO_PIN_DOOR": false,
        "ROLE_NAME": "KASUTAJA",
        "NO_PIN_USER_ID": false,
        "LIST": false,
        "DEACTIVATED": false,
        "USER_ID": "1970",
        "NBR_OF_BAD_PIN": 0,
        "PIN": "",
        "NBR_OF_LOGINS": -1,
        "NO_PIN_BIO": false,
        "NO_PIN": true,
        "NAME": "Saima Kruup"
      },
      "KIND": "ADD"
    },
    {
      "USER": {
        "NO_PIN_CARD": false,
        "ALIAS": "1976",
        "CARD_IDENTIFIER": "",
        "FINGERPRINTS": "",
        "CHANGE_PIN_ON_LOGIN": false,
        "NO_PIN_DOOR": false,
        "ROLE_NAME": "KASUTAJA",
        "NO_PIN_USER_ID": false,
        "LIST": false,
        "DEACTIVATED": false,
        "USER_ID": "1976",
        "NBR_OF_BAD_PIN": 0,
        "PIN": "",
        "NBR_OF_LOGINS": -1,
        "NO_PIN_BIO": false,
        "NO_PIN": true,
        "NAME": "Mariina Ruusalu"
      },
      "KIND": "ADD"
    },
    {
      "USER": {
        "NO_PIN_CARD": false,
        "ALIAS": "1978",
        "CARD_IDENTIFIER": "",
        "FINGERPRINTS": "",
        "CHANGE_PIN_ON_LOGIN": false,
        "NO_PIN_DOOR": false,
        "ROLE_NAME": "KASUTAJA",
        "NO_PIN_USER_ID": false,
        "LIST": false,
        "DEACTIVATED": false,
        "USER_ID": "1978",
        "NBR_OF_BAD_PIN": 0,
        "PIN": "",
        "NBR_OF_LOGINS": -1,
        "NO_PIN_BIO": false,
        "NO_PIN": true,
        "NAME": "Anne Kaasik"
      },
      "KIND": "ADD"
    },
    {
      "USER": {
        "NO_PIN_CARD": false,
        "ALIAS": "1979",
        "CARD_IDENTIFIER": "",
        "FINGERPRINTS": "",
        "CHANGE_PIN_ON_LOGIN": false,
        "NO_PIN_DOOR": false,
        "ROLE_NAME": "KASUTAJA",
        "NO_PIN_USER_ID": false,
        "LIST": false,
        "DEACTIVATED": false,
        "USER_ID": "1979",
        "NBR_OF_BAD_PIN": 0,
        "PIN": "",
        "NBR_OF_LOGINS": -1,
        "NO_PIN_BIO": false,
        "NO_PIN": true,
        "NAME": "Eda Pailiine Vahur"
      },
      "KIND": "ADD"
    },
    {
      "USER": {
        "NO_PIN_CARD": false,
        "ALIAS": "1981",
        "CARD_IDENTIFIER": "",
        "FINGERPRINTS": "",
        "CHANGE_PIN_ON_LOGIN": false,
        "NO_PIN_DOOR": false,
        "ROLE_NAME": "KASUTAJA",
        "NO_PIN_USER_ID": false,
        "LIST": false,
        "DEACTIVATED": false,
        "USER_ID": "1981",
        "NBR_OF_BAD_PIN": 0,
        "PIN": "",
        "NBR_OF_LOGINS": -1,
        "NO_PIN_BIO": false,
        "NO_PIN": true,
        "NAME": "Kaie Timps"
      },
      "KIND": "ADD"
    },
    {
      "USER": {
        "NO_PIN_CARD": false,
        "ALIAS": "1982",
        "CARD_IDENTIFIER": "",
        "FINGERPRINTS": "",
        "CHANGE_PIN_ON_LOGIN": false,
        "NO_PIN_DOOR": false,
        "ROLE_NAME": "KASUTAJA",
        "NO_PIN_USER_ID": false,
        "LIST": false,
        "DEACTIVATED": false,
        "USER_ID": "1982",
        "NBR_OF_BAD_PIN": 0,
        "PIN": "",
        "NBR_OF_LOGINS": -1,
        "NO_PIN_BIO": false,
        "NO_PIN": true,
        "NAME": "Svetlana Otsalainen"
      },
      "KIND": "ADD"
    },
    {
      "USER": {
        "NO_PIN_CARD": false,
        "ALIAS": "1997",
        "CARD_IDENTIFIER": "",
        "FINGERPRINTS": "",
        "CHANGE_PIN_ON_LOGIN": false,
        "NO_PIN_DOOR": false,
        "ROLE_NAME": "KASUTAJA",
        "NO_PIN_USER_ID": false,
        "LIST": false,
        "DEACTIVATED": false,
        "USER_ID": "1997",
        "NBR_OF_BAD_PIN": 0,
        "PIN": "",
        "NBR_OF_LOGINS": -1,
        "NO_PIN_BIO": false,
        "NO_PIN": true,
        "NAME": "Ellen Moldre"
      },
      "KIND": "ADD"
    },
    {
      "USER": {
        "NO_PIN_CARD": false,
        "ALIAS": "2004",
        "CARD_IDENTIFIER": "",
        "FINGERPRINTS": "",
        "CHANGE_PIN_ON_LOGIN": false,
        "NO_PIN_DOOR": false,
        "ROLE_NAME": "KASUTAJA",
        "NO_PIN_USER_ID": false,
        "LIST": false,
        "DEACTIVATED": false,
        "USER_ID": "2004",
        "NBR_OF_BAD_PIN": 0,
        "PIN": "",
        "NBR_OF_LOGINS": -1,
        "NO_PIN_BIO": false,
        "NO_PIN": true,
        "NAME": "Diana Tjusina"
      },
      "KIND": "ADD"
    },
    {
      "USER": {
        "NO_PIN_CARD": false,
        "ALIAS": "2010",
        "CARD_IDENTIFIER": "",
        "FINGERPRINTS": "",
        "CHANGE_PIN_ON_LOGIN": false,
        "NO_PIN_DOOR": false,
        "ROLE_NAME": "KASUTAJA",
        "NO_PIN_USER_ID": false,
        "LIST": false,
        "DEACTIVATED": false,
        "USER_ID": "2010",
        "NBR_OF_BAD_PIN": 0,
        "PIN": "",
        "NBR_OF_LOGINS": -1,
        "NO_PIN_BIO": false,
        "NO_PIN": true,
        "NAME": "Annika Aidama"
      },
      "KIND": "ADD"
    },
    {
      "USER": {
        "NO_PIN_CARD": false,
        "ALIAS": "2013",
        "CARD_IDENTIFIER": "",
        "FINGERPRINTS": "",
        "CHANGE_PIN_ON_LOGIN": false,
        "NO_PIN_DOOR": false,
        "ROLE_NAME": "KASUTAJA",
        "NO_PIN_USER_ID": false,
        "LIST": false,
        "DEACTIVATED": false,
        "USER_ID": "2013",
        "NBR_OF_BAD_PIN": 0,
        "PIN": "",
        "NBR_OF_LOGINS": -1,
        "NO_PIN_BIO": false,
        "NO_PIN": true,
        "NAME": "Sirje Kukk"
      },
      "KIND": "ADD"
    },
    {
      "USER": {
        "NO_PIN_CARD": false,
        "ALIAS": "2014",
        "CARD_IDENTIFIER": "",
        "FINGERPRINTS": "",
        "CHANGE_PIN_ON_LOGIN": false,
        "NO_PIN_DOOR": false,
        "ROLE_NAME": "KASUTAJA",
        "NO_PIN_USER_ID": false,
        "LIST": false,
        "DEACTIVATED": false,
        "USER_ID": "2014",
        "NBR_OF_BAD_PIN": 0,
        "PIN": "",
        "NBR_OF_LOGINS": -1,
        "NO_PIN_BIO": false,
        "NO_PIN": true,
        "NAME": "Ene Narusing"
      },
      "KIND": "ADD"
    },
    {
      "USER": {
        "NO_PIN_CARD": false,
        "ALIAS": "2019",
        "CARD_IDENTIFIER": "",
        "FINGERPRINTS": "",
        "CHANGE_PIN_ON_LOGIN": false,
        "NO_PIN_DOOR": false,
        "ROLE_NAME": "KASUTAJA",
        "NO_PIN_USER_ID": false,
        "LIST": false,
        "DEACTIVATED": false,
        "USER_ID": "2019",
        "NBR_OF_BAD_PIN": 0,
        "PIN": "",
        "NBR_OF_LOGINS": -1,
        "NO_PIN_BIO": false,
        "NO_PIN": true,
        "NAME": "Ulle Kriiva"
      },
      "KIND": "ADD"
    },
    {
      "USER": {
        "NO_PIN_CARD": false,
        "ALIAS": "5001",
        "CARD_IDENTIFIER": "",
        "FINGERPRINTS": "",
        "CHANGE_PIN_ON_LOGIN": false,
        "NO_PIN_DOOR": false,
        "ROLE_NAME": "Administrator",
        "NO_PIN_USER_ID": false,
        "LIST": false,
        "DEACTIVATED": false,
        "USER_ID": "5001",
        "NBR_OF_BAD_PIN": 0,
        "PIN": "88F04hW56drIA",
        "NBR_OF_LOGINS": -1,
        "NO_PIN_BIO": false,
        "NO_PIN": false,
        "NAME": "Administrator"
      },
      "KIND": "ADD"
    },
    {
      "USER": {
        "NO_PIN_CARD": false,
        "ALIAS": "9001",
        "CARD_IDENTIFIER": "",
        "FINGERPRINTS": "",
        "CHANGE_PIN_ON_LOGIN": false,
        "NO_PIN_DOOR": false,
        "ROLE_NAME": "CIT",
        "NO_PIN_USER_ID": false,
        "LIST": false,
        "DEACTIVATED": false,
        "USER_ID": "9001",
        "NBR_OF_BAD_PIN": 0,
        "PIN": "62BWR.pesLdfs",
        "NBR_OF_LOGINS": -1,
        "NO_PIN_BIO": false,
        "NO_PIN": false,
        "NAME": "CIT"
      },
      "KIND": "ADD"
    }
  ],
  "UUID": "a3dcdc96-7f45-4798-89c7-435536b431f7",
  "VERSION": "3.7.4"
}