{
    "LICENSE_ID": "iJsPU0JklfRc9m6ByGxQAWBReBuD44shTpp7pq4TUlA=",
    "MACHINE_TYPE": "RCS",
    "MESSAGE_TYPE": "SystemStatus",
    "SETTINGS": {
        "SetConfigurationUpdate": {
            "CURRENT": {
                "receipts": "20200513_0948",
                "themes": "20200513_0948",
                "configuration": "20200513_0948",
                "i18n": "20200513_0948"
            }
        },
        "SetSoftwareUpgrade": {
            "CURRENT": {
                "name": "CashComplete Demo",
                "id": "products.rcs.lv.prosegur.demo",
                "label": "20200904_1320",
                "version": "3.14.0-beta17",
                "revision": "106777"
            }
        }
    },
    "MESSAGE_SEQUENCE": 532,
    "PASSWD_FORMAT": "",
    "OLD_STATUS": "Idle",
    "STATUS": "Idle",
    "TIME_ZONE_UTC_OFFSET": "+02:00",
    "SEQUENCE": 0,
    "MACHINE_ID": "1001",
    "FILE_VERSIONS": {
        "users": "968"
    },
    "VERSION": "3.14.0-beta17",
    "DATE_TIME": "20201015 10:13:17.694",
    "UUID": "a26c5d8b-2885-4cb3-94bc-03429376cb5f",
    "RECEIVER": "Server",
    "MD5": "2e45dcd1091c965e8d1a771b55d4e520"
}


{
    "LICENSE_ID": "pIlFUjHoyUyFNMR2g1LoOBceo1ARlHUosFEcOKOozq8=",
    "MACHINE_TYPE": "RCS",
    "MESSAGE_TYPE": "SystemStatus",
    "SETTINGS": {
        "SetConfigurationUpdate": {
            "WAITING": {
                "receipts": "20200513_0948",
                "themes": "20200513_0948",
                "configuration": "20200513_0948",
                "i18n": "20200513_0948"
            },
            "CURRENT": {
                "receipts": "20201014_0957",
                "themes": "20200513_0948",
                "configuration": "20201014_0957",
                "sdk": "20200923_1010",
                "i18n": "20201014_0957"
            }
        },
        "SetSoftwareUpgrade": {
            "CURRENT": {
                "name": "CashComplete",
                "id": "products.rcs800.standard",
                "label": "20200902_1519",
                "version": "3.14.0.1-beta9",
                "revision": "106709"
            }
        }
    },
    "MESSAGE_SEQUENCE": 48313,
    "OLD_STATUS": "Identify",
    "STATUS": "Idle",
    "TIME_ZONE_UTC_OFFSET": "+02:00",
    "SEQUENCE": 0,
    "MACHINE_ID": "1001",
    "VERSION": "3.14.0.1-beta9",
    "DATE_TIME": "20201016 13:50:26.107",
    "UUID": "699bc792-1141-42f1-84cc-90b107d5bb1b",
    "RECEIVER": "Server",
    "MD5": "ebc7f57c3ec9968b6795dba4ab35c1cd"
}{
    "MACHINE_ID": "CCC-delaware-8bf9d4dd-7782-44fb-a891-55dc2f3a8e3c",
    "SEQUENCE": 0,
    "VERSION": "3.14.0.1-beta9",
    "MESSAGE_TYPE": "Reply",
    "FILE_VERSIONS": {
        "users": "969"
    },
    "DATE_TIME": "20201016 13:50:26.107",
    "REPLY_CODE": 0,
    "RECEIVER": "699bc792-1141-42f1-84cc-90b107d5bb1b",
    "KEEP_ALIVE": "true",
    "MESSAGE_SEQUENCE": 48313
}

{
    "LICENSE_ID": "pIlFUjHoyUyFNMR2g1LoOBceo1ARlHUosFEcOKOozq8=",
    "MACHINE_TYPE": "RCS",
    "MESSAGE_TYPE": "SystemStatus",
    "SETTINGS": {
        "SetConfigurationUpdate": {
            "CURRENT": {
                "receipts": "20200513_0948",
                "themes": "20200513_0948",
                "configuration": "20200513_0948",
                "sdk": "20200923_1010",
                "i18n": "20200513_0948"
            }
        },
        "SetSoftwareUpgrade": {
            "WAITING": [{
                "name": "CashComplete",
                "id": "products.rcs800.standard",
                "label": "20200917_1141",
                "version": "3.14.0.0-beta48",
                "revision": "106920"
            }
            ],
            "CURRENT": {
                "name": "CashComplete",
                "id": "products.rcs800.standard",
                "label": "20200902_1519",
                "version": "3.14.0.1-beta9",
                "revision": "106709"
            }
        }
    },
    "MESSAGE_SEQUENCE": 56946,
    "OLD_STATUS": "OutOfUse",
    "STATUS": "Idle",
    "TIME_ZONE_UTC_OFFSET": "+02:00",
    "SEQUENCE": 0,
    "MACHINE_ID": "1001",
    "VERSION": "3.14.0.1-beta9",
    "DATE_TIME": "20201019 14:02:27.651",
    "UUID": "699bc792-1141-42f1-84cc-90b107d5bb1b",
    "RECEIVER": "Server",
    "MD5": "150d1b124418fcdea9f4ba474b933b43"
}
